<svg width="16" height="16" viewBox="0 0 16 16" fill="none" xmlns="http://www.w3.org/2000/svg">
<g clip-path="url(#clip0)">
<path d="M9.68894 6.30984C9.50731 6.12713 9.30592 5.96518 9.0885 5.82693C8.51265 5.45819 7.84319 5.26224 7.1594 5.26224C6.21031 5.26048 5.29978 5.63757 4.62985 6.30984L1.37977 9.56247C0.710971 10.2326 0.335072 11.1404 0.334473 12.0872C0.333216 14.0628 1.9337 15.6653 3.90931 15.6666C4.85693 15.6699 5.76662 15.2946 6.43631 14.6241L9.11916 11.9413C9.16791 11.8929 9.19513 11.827 9.19474 11.7584C9.19393 11.6173 9.07886 11.5035 8.93774 11.5043H8.83555C8.27502 11.5063 7.7195 11.3987 7.2003 11.1875C7.10463 11.1481 6.99468 11.1704 6.9218 11.2437L4.99269 13.1754C4.39366 13.7744 3.42245 13.7744 2.82342 13.1754C2.22439 12.5763 2.22439 11.6051 2.82342 11.0061L6.08628 7.7458C6.68484 7.148 7.65447 7.148 8.25302 7.7458C8.6564 8.12544 9.28561 8.12544 9.68897 7.7458C9.86252 7.5721 9.96774 7.34172 9.98537 7.09679C10.004 6.80411 9.89608 6.51747 9.68894 6.30984Z" fill="white"/>
<path d="M14.6179 1.38105C13.2209 -0.0159747 10.9559 -0.0159747 9.55886 1.38105L6.87855 4.05878C6.80495 4.13274 6.78372 4.24398 6.8249 4.33986C6.86559 4.436 6.96068 4.49771 7.06506 4.49571H7.15959C7.71946 4.49469 8.27408 4.60317 8.7923 4.8151C8.88797 4.85448 8.99791 4.83226 9.07079 4.7589L10.9948 2.83746C11.5938 2.23843 12.565 2.23843 13.1641 2.83746C13.7631 3.43649 13.7631 4.40771 13.1641 5.00674L10.7674 7.40085L10.7469 7.42385L9.90886 8.25682C9.3103 8.85462 8.34068 8.85462 7.74212 8.25682C7.33874 7.87718 6.70953 7.87718 6.30617 8.25682C6.13152 8.43183 6.02621 8.66422 6.00977 8.91091C5.99109 9.2036 6.09903 9.49024 6.30617 9.69789C6.60191 9.99489 6.94793 10.2371 7.3282 10.4133C7.38186 10.4389 7.43551 10.4593 7.48917 10.4823C7.54283 10.5053 7.59903 10.5232 7.65269 10.5436C7.70634 10.5641 7.76255 10.5819 7.8162 10.5973L7.96696 10.6381C8.06916 10.6637 8.17138 10.6841 8.27612 10.702C8.4023 10.7208 8.52937 10.7327 8.65684 10.7378H8.83569H8.85102L9.00432 10.7199C9.06052 10.7174 9.1193 10.7046 9.18574 10.7046H9.27261L9.44891 10.679L9.53068 10.6637L9.67887 10.6331H9.70698C10.3346 10.4754 10.9077 10.1504 11.3652 9.69277L14.6179 6.44015C16.015 5.04312 16.015 2.77808 14.6179 1.38105Z" fill="white"/>
</g>
<defs>
<clipPath id="clip0">
<rect x="0.333496" y="0.333252" width="15.3333" height="15.3333" fill="white"/>
</clipPath>
</defs>
</svg>
