<svg width="20" height="12" viewBox="0 0 20 12" fill="none" xmlns="http://www.w3.org/2000/svg">
<path d="M19.7892 10.4576C19.7356 10.3679 19.4042 9.64775 17.8094 8.16759C16.1399 6.61766 16.3641 6.86934 18.3751 4.18935C19.5998 2.55719 20.0895 1.56045 19.9362 1.13434C19.7904 0.72817 18.8896 0.83532 18.8896 0.83532L15.8944 0.852763C15.8944 0.852763 15.6726 0.822861 15.5069 0.921289C15.3462 1.01847 15.2428 1.24274 15.2428 1.24274C15.2428 1.24274 14.7681 2.50611 14.1352 3.58009C12.8008 5.84643 12.2663 5.96604 12.0482 5.82525C11.5412 5.49757 11.6682 4.50706 11.6682 3.80436C11.6682 1.60779 12.0009 0.692038 11.0191 0.455312C10.6927 0.376819 10.4535 0.32449 9.61994 0.315769C8.55093 0.304555 7.64515 0.319507 7.13307 0.569938C6.79169 0.736892 6.5288 1.10942 6.68952 1.1306C6.88762 1.15677 7.33616 1.25146 7.57413 1.5754C7.88187 1.99278 7.87066 2.93221 7.87066 2.93221C7.87066 2.93221 8.04758 5.51751 7.45826 5.83896C7.05333 6.05949 6.49889 5.60971 5.30904 3.55268C4.69978 2.49988 4.23879 1.33494 4.23879 1.33494C4.23879 1.33494 4.15033 1.11815 3.99209 1.00227C3.80022 0.861484 3.5311 0.816631 3.5311 0.816631L0.682914 0.834074C0.682914 0.834074 0.255561 0.846533 0.0985746 1.03218C-0.0409691 1.19788 0.0873613 1.53927 0.0873613 1.53927C0.0873613 1.53927 2.31757 6.75596 4.84181 9.38611C7.15799 11.797 9.78689 11.6387 9.78689 11.6387H10.978C10.978 11.6387 11.3381 11.5989 11.5212 11.4008C11.6907 11.2189 11.6844 10.8775 11.6844 10.8775C11.6844 10.8775 11.6608 9.27896 12.4033 9.04348C13.1347 8.81174 14.0741 10.5884 15.0696 11.2724C15.8222 11.7895 16.394 11.6761 16.394 11.6761L19.0566 11.6387C19.0566 11.6387 20.4495 11.5528 19.7892 10.4576Z" fill="white"/>
</svg>
