<svg class="blog-credit__img" width="142" height="113" viewBox="0 0 142 113" fill="none" xmlns="http://www.w3.org/2000/svg">
    <path d="M82.8303 13.1672C82.7297 16.5943 78.4186 25.2522 78.4186 25.2522C78.4186 25.2522 73.619 16.349 73.698 12.9868C73.777 9.6247 79.015 0 79.015 0C79.015 0 82.9093 9.77621 82.8303 13.1672Z" fill="#F7B206"/>
    <path d="M58.4942 19.4802C60.7719 21.9837 63.6316 31.2621 63.6316 31.2621C63.6316 31.2621 54.0323 28.1669 51.7546 25.6561C49.4769 23.1454 46.6675 12.6116 46.6675 12.6116C46.6675 12.6116 56.2094 16.9766 58.4942 19.4802Z" fill="#F7B206"/>
    <path d="M97.409 19.4802C95.1314 21.9837 92.2717 31.2621 92.2717 31.2621C92.2717 31.2621 101.871 28.1669 104.149 25.6561C106.426 23.1454 109.236 12.6116 109.236 12.6116C109.236 12.6116 99.6939 16.9766 97.409 19.4802Z" fill="#F7B206"/>
    <path d="M78.548 11.6448H78.2606V91.0233H78.548V11.6448Z" fill="#03053F"/>
    <path d="M72.4478 90.3307C72.4478 89.9916 71.0969 56.5072 69.1929 45.0571C66.9224 31.2694 53.8023 21.2046 53.673 21.1036L53.8454 20.8655C53.9819 20.9665 67.1739 31.1034 69.4803 45.0066C71.3843 56.4783 72.728 89.9844 72.7352 90.3163L72.4478 90.3307Z" fill="#03053F"/>
    <path d="M84.0159 90.3307H83.7213C83.7213 89.9988 85.0793 56.4927 86.9834 45.021C89.2898 31.1178 102.482 20.9809 102.611 20.8799L102.791 21.118C102.654 21.219 89.5557 31.2838 87.2708 45.0715C85.3667 56.5144 84.0303 89.9916 84.0159 90.3307Z" fill="#03053F"/>
    <path d="M83.5847 86.6584H71.37C71.37 86.6584 68.6755 87.9283 68.3522 92.0408C67.7702 99.5443 72.4477 112.74 72.4477 112.74H83.944C83.944 112.74 87.7664 96.9902 86.9258 92.0408C86.3222 88.0726 83.5847 86.6584 83.5847 86.6584Z" fill="#0055AA"/>
    <path d="M48.8734 76.1968H43.8151V95.6338H48.8734V76.1968Z" fill="white"/>
    <path d="M47.8315 90.0349H44.8641V109.472H47.8315V90.0349Z" fill="white"/>
    <path d="M17.4887 45.8508L33.4182 71.7668C33.4182 71.7668 60.966 76.0958 61.2031 73.7509C61.2462 73.2675 61.548 64.6457 59.3422 63.9458C57.1363 63.246 17.4887 45.8508 17.4887 45.8508Z" fill="#04153F"/>
    <path d="M58.6452 71.1824H31.6722C30.2595 71.1824 29.1143 72.3323 29.1143 73.7509V76.0813C29.1143 77.4998 30.2595 78.6498 31.6722 78.6498H58.6452C60.0579 78.6498 61.2031 77.4998 61.2031 76.0813V73.7509C61.2031 72.3323 60.0579 71.1824 58.6452 71.1824Z" fill="#03053F"/>
    <path d="M30.0411 78.3035L34.0001 71.1823C34.0001 71.1823 15.6348 42.2217 15.1894 42.3443C14.7439 42.467 9.37659 41.2982 9.37659 44.3284C9.37659 47.3587 30.0411 78.3035 30.0411 78.3035Z" fill="#0E24A5"/>
    <path d="M31.8374 109.825C30.9192 108.471 30.4193 106.875 30.4003 105.237C30.4003 99.1256 37.5424 94.1545 46.3154 94.1545C55.0885 94.1545 62.2233 99.1256 62.2233 105.237C62.2147 106.746 61.7974 108.225 61.0162 109.515L58.6739 108.115C59.2086 107.248 59.4945 106.249 59.5002 105.229C59.5002 100.706 53.4646 96.8818 46.3154 96.8818C39.1662 96.8818 33.1522 100.713 33.1522 105.237C33.1645 106.343 33.4992 107.422 34.1151 108.339L31.8374 109.825Z" fill="white"/>
    <path d="M86.6313 111.831C86.2975 112.168 85.9006 112.436 85.4634 112.618C85.0263 112.801 84.5576 112.895 84.0842 112.895C83.6108 112.895 83.142 112.801 82.7049 112.618C82.2678 112.436 81.8709 112.168 81.537 111.831C81.2003 111.496 80.9331 111.097 80.7507 110.657C80.5683 110.218 80.4744 109.746 80.4744 109.27C80.4744 108.794 80.5683 108.322 80.7507 107.882C80.9331 107.443 81.2003 107.044 81.537 106.708L87.6157 100.605C87.9497 100.267 88.347 99.9982 88.7848 99.815C89.2226 99.6319 89.6921 99.5376 90.1664 99.5376C90.6407 99.5376 91.1102 99.6319 91.548 99.815C91.9858 99.9982 92.3832 100.267 92.7171 100.605C93.0528 100.94 93.3191 101.338 93.5009 101.777C93.6826 102.216 93.7762 102.687 93.7762 103.162C93.7762 103.638 93.6826 104.108 93.5009 104.547C93.3191 104.986 93.0528 105.385 92.7171 105.72L86.6313 111.831Z" fill="#8EA8DD"/>
    <path d="M129.699 111.831C130.033 112.169 130.43 112.438 130.868 112.621C131.306 112.804 131.775 112.898 132.25 112.898C132.724 112.898 133.194 112.804 133.631 112.621C134.069 112.438 134.467 112.169 134.8 111.831C135.137 111.496 135.404 111.097 135.587 110.657C135.769 110.218 135.863 109.746 135.863 109.27C135.863 108.794 135.769 108.322 135.587 107.882C135.404 107.443 135.137 107.044 134.8 106.709L128.715 100.59C128.381 100.253 127.984 99.9858 127.547 99.8033C127.11 99.6208 126.641 99.5269 126.168 99.5269C125.694 99.5269 125.225 99.6208 124.788 99.8033C124.351 99.9858 123.954 100.253 123.62 100.59C123.285 100.926 123.018 101.324 122.837 101.763C122.655 102.202 122.561 102.673 122.561 103.148C122.561 103.623 122.655 104.094 122.837 104.533C123.018 104.972 123.285 105.37 123.62 105.706L129.699 111.831Z" fill="#8EA8DD"/>
    <path d="M90.8058 43.0875C89.7643 41.5187 89.2047 39.6772 89.1964 37.7918C89.1964 30.75 97.4305 25.0142 107.547 25.0142C117.664 25.0142 125.898 30.75 125.898 37.7918C125.892 39.5339 125.41 41.2409 124.504 42.7268L121.803 41.1251C122.417 40.1274 122.748 38.9794 122.758 37.8062C122.758 32.5898 115.789 28.1815 107.54 28.1815C99.2915 28.1815 92.3291 32.5898 92.3291 37.8062C92.3362 39.0929 92.7238 40.3485 93.4428 41.4137L90.8058 43.0875Z" fill="#A4B8EA"/>
    <path d="M125.724 40.6189L119.493 50.3718L131.975 58.4125L138.206 48.6596L125.724 40.6189Z" fill="#F79706"/>
    <path d="M120.394 42.8278C121.051 41.4068 121.995 40.139 123.168 39.1056C124.34 38.0722 125.714 37.2959 127.203 36.8264C128.691 36.3568 130.26 36.2044 131.811 36.3788C133.361 36.5533 134.858 37.0508 136.206 37.8394C137.554 38.6281 138.723 39.6906 139.638 40.9589C140.554 42.2273 141.195 43.6735 141.522 45.2052C141.849 46.7368 141.854 48.3202 141.537 49.8539C141.219 51.3876 140.587 52.8378 139.679 54.1119C139.302 54.6504 138.876 55.1528 138.407 55.6126L120.394 42.8278Z" fill="#F7B306"/>
    <path d="M89.4771 41.1034L76.9946 49.144L83.2252 58.8969L95.7077 50.8563L89.4771 41.1034Z" fill="#F79706"/>
    <path d="M140.995 87.0011C145.533 68.6429 134.391 50.0666 116.108 45.5098C97.826 40.953 79.3263 52.1412 74.7883 70.4995C70.2503 88.8577 81.3924 107.434 99.6749 111.991C117.957 116.548 136.457 105.359 140.995 87.0011Z" fill="#F7B206"/>
    <path d="M135.604 84.8129C138.934 69.4491 129.231 54.2832 113.93 50.939C98.63 47.5947 83.5267 57.3385 80.1962 72.7023C76.8658 88.0662 86.5694 103.232 101.87 106.576C117.17 109.921 132.274 100.177 135.604 84.8129Z" fill="white"/>
    <path d="M108.934 53.9747C108.935 54.1831 108.875 54.3871 108.761 54.5611C108.647 54.7352 108.484 54.8713 108.293 54.9523C108.102 55.0334 107.891 55.0557 107.687 55.0164C107.484 54.9772 107.296 54.8782 107.148 54.7319C107.001 54.5856 106.899 54.3986 106.858 54.1945C106.816 53.9905 106.835 53.7785 106.913 53.5855C106.991 53.3925 107.125 53.227 107.296 53.1101C107.468 52.9932 107.67 52.93 107.878 52.9286C108.016 52.9267 108.153 52.9523 108.281 53.004C108.409 53.0557 108.526 53.1325 108.624 53.2298C108.722 53.3272 108.8 53.4431 108.853 53.571C108.907 53.6989 108.934 53.8361 108.934 53.9747Z" fill="#425AC2"/>
    <path d="M96.4605 56.7742C96.5609 56.9538 96.6063 57.1592 96.5909 57.3646C96.5755 57.57 96.5001 57.7663 96.374 57.9288C96.248 58.0914 96.077 58.2129 95.8824 58.2783C95.6879 58.3436 95.4785 58.3498 95.2804 58.2961C95.0824 58.2424 94.9045 58.1312 94.7691 57.9764C94.6338 57.8216 94.5469 57.6302 94.5195 57.426C94.4921 57.2219 94.5253 57.0142 94.6149 56.8289C94.7046 56.6436 94.8467 56.489 95.0235 56.3845C95.1432 56.3149 95.2755 56.2698 95.4126 56.2517C95.5498 56.2336 95.6892 56.2429 95.8228 56.2791C95.9563 56.3153 96.0814 56.3777 96.1909 56.4627C96.3004 56.5476 96.392 56.6535 96.4605 56.7742Z" fill="#425AC2"/>
    <path d="M87.0408 65.4538C87.2818 65.5935 87.4578 65.8236 87.5299 66.0936C87.6019 66.3635 87.5643 66.6511 87.4252 66.8932C87.2861 67.1352 87.0569 67.3119 86.7881 67.3843C86.5193 67.4567 86.2328 67.4189 85.9918 67.2792C85.7507 67.1395 85.5748 66.9094 85.5027 66.6394C85.4306 66.3695 85.4682 66.0819 85.6073 65.8398C85.7465 65.5977 85.9756 65.4211 86.2445 65.3487C86.5133 65.2763 86.7997 65.3141 87.0408 65.4538Z" fill="#425AC2"/>
    <path d="M83.2184 77.7046C83.4258 77.7046 83.6287 77.7664 83.8012 77.8821C83.9737 77.9979 84.1081 78.1624 84.1875 78.3549C84.2669 78.5474 84.2877 78.7592 84.2472 78.9635C84.2068 79.1678 84.1069 79.3555 83.9602 79.5029C83.8134 79.6502 83.6265 79.7505 83.423 79.7911C83.2195 79.8318 83.0086 79.8109 82.8169 79.7312C82.6252 79.6515 82.4614 79.5165 82.3461 79.3432C82.2309 79.17 82.1693 78.9663 82.1693 78.758C82.1684 78.6194 82.1949 78.482 82.2472 78.3538C82.2996 78.2255 82.3769 78.109 82.4745 78.011C82.5721 77.913 82.6881 77.8354 82.8158 77.7828C82.9435 77.7302 83.0803 77.7037 83.2184 77.7046Z" fill="#425AC2"/>
    <path d="M85.999 90.237C86.118 90.1661 86.2499 90.1197 86.387 90.1005C86.5241 90.0814 86.6636 90.0899 86.7974 90.1255C86.9311 90.1611 87.0565 90.2231 87.1662 90.3079C87.2758 90.3927 87.3675 90.4986 87.436 90.6194C87.5044 90.7387 87.5487 90.8705 87.5664 91.0071C87.5841 91.1436 87.5749 91.2824 87.5392 91.4154C87.5035 91.5484 87.442 91.673 87.3584 91.7821C87.2747 91.8913 87.1705 91.9828 87.0516 92.0515C86.9327 92.1202 86.8015 92.1647 86.6655 92.1825C86.5295 92.2003 86.3913 92.191 86.2589 92.1551C86.1264 92.1193 86.0023 92.0576 85.8936 91.9736C85.7849 91.8896 85.6937 91.7849 85.6253 91.6655C85.5557 91.5473 85.5102 91.4163 85.4913 91.2803C85.4724 91.1443 85.4806 91.0058 85.5153 90.873C85.5501 90.7401 85.6107 90.6155 85.6937 90.5063C85.7767 90.3972 85.8805 90.3056 85.999 90.237Z" fill="#425AC2"/>
    <path d="M94.65 99.6886C94.7881 99.4475 95.016 99.2714 95.2835 99.199C95.551 99.1266 95.8361 99.1639 96.0762 99.3026C96.3163 99.4413 96.4917 99.6701 96.5638 99.9387C96.6359 100.207 96.5988 100.494 96.4606 100.735C96.3922 100.854 96.3011 100.959 96.1924 101.043C96.0837 101.127 95.9596 101.189 95.8271 101.224C95.6947 101.26 95.5565 101.27 95.4205 101.252C95.2845 101.234 95.1533 101.189 95.0344 101.121C94.9155 101.052 94.8112 100.961 94.7276 100.851C94.6439 100.742 94.5825 100.618 94.5468 100.485C94.5111 100.352 94.5018 100.213 94.5195 100.076C94.5372 99.9397 94.5816 99.808 94.65 99.6886Z" fill="#425AC2"/>
    <path d="M106.843 103.534C106.849 103.326 106.915 103.125 107.035 102.955C107.154 102.786 107.321 102.655 107.514 102.58C107.707 102.505 107.917 102.49 108.119 102.535C108.321 102.58 108.505 102.684 108.648 102.833C108.792 102.983 108.888 103.172 108.924 103.377C108.961 103.581 108.936 103.792 108.854 103.982C108.772 104.173 108.635 104.335 108.461 104.447C108.288 104.56 108.085 104.619 107.878 104.616C107.739 104.614 107.601 104.585 107.474 104.529C107.346 104.474 107.231 104.393 107.135 104.292C107.039 104.192 106.963 104.073 106.913 103.943C106.863 103.812 106.839 103.673 106.843 103.534Z" fill="#425AC2"/>
    <path d="M119.324 100.735C119.255 100.615 119.211 100.484 119.193 100.347C119.175 100.21 119.185 100.072 119.22 99.9387C119.256 99.8057 119.318 99.6811 119.401 99.572C119.485 99.4628 119.589 99.3713 119.708 99.3026C119.827 99.2339 119.958 99.1894 120.094 99.1716C120.23 99.1538 120.368 99.1631 120.501 99.199C120.633 99.2348 120.757 99.2965 120.866 99.3805C120.975 99.4645 121.066 99.5692 121.134 99.6886C121.272 99.9297 121.31 100.216 121.237 100.485C121.165 100.753 120.99 100.982 120.75 101.121C120.51 101.259 120.225 101.297 119.957 101.224C119.69 101.152 119.462 100.976 119.324 100.735Z" fill="#425AC2"/>
    <path d="M128.715 92.055C128.535 91.9507 128.391 91.7954 128.299 91.6088C128.208 91.4222 128.173 91.2125 128.2 91.0062C128.227 90.8 128.315 90.6063 128.451 90.4498C128.587 90.2932 128.767 90.1807 128.967 90.1265C129.167 90.0723 129.379 90.0787 129.575 90.1451C129.771 90.2114 129.944 90.3346 130.07 90.4992C130.197 90.6638 130.272 90.8624 130.287 91.0699C130.301 91.2775 130.254 91.4847 130.152 91.6654C130.083 91.786 129.991 91.8919 129.882 91.9769C129.773 92.0618 129.647 92.1242 129.514 92.1604C129.38 92.1966 129.241 92.206 129.104 92.1879C128.967 92.1698 128.834 92.1246 128.715 92.055Z" fill="#425AC2"/>
    <path d="M132.566 79.8042C132.358 79.8057 132.154 79.7449 131.98 79.6297C131.807 79.5145 131.671 79.3501 131.591 79.1573C131.511 78.9645 131.489 78.7521 131.529 78.5471C131.57 78.3421 131.67 78.1538 131.817 78.006C131.964 77.8583 132.152 77.7578 132.356 77.7174C132.56 77.677 132.771 77.6985 132.963 77.7791C133.155 77.8597 133.319 77.9958 133.434 78.1701C133.549 78.3445 133.609 78.5491 133.608 78.7581C133.608 79.0355 133.498 79.3016 133.303 79.4978C133.107 79.694 132.842 79.8042 132.566 79.8042Z" fill="#425AC2"/>
    <path d="M129.785 67.279C129.606 67.3832 129.4 67.4317 129.193 67.4183C128.986 67.4049 128.788 67.3303 128.623 67.2039C128.458 67.0775 128.335 66.9049 128.267 66.7079C128.2 66.511 128.193 66.2985 128.246 66.0973C128.299 65.8961 128.41 65.7152 128.566 65.5774C128.721 65.4397 128.914 65.3512 129.119 65.3233C129.325 65.2953 129.534 65.3291 129.72 65.4204C129.906 65.5116 130.062 65.6562 130.166 65.836C130.236 65.9558 130.281 66.0882 130.3 66.2256C130.318 66.3631 130.309 66.5029 130.274 66.6369C130.239 66.771 130.177 66.8967 130.093 67.0069C130.01 67.1171 129.905 67.2096 129.785 67.279Z" fill="#425AC2"/>
    <path d="M121.134 57.8204C121.03 57.9976 120.875 58.1399 120.69 58.2293C120.505 58.3187 120.298 58.3512 120.095 58.3228C119.891 58.2945 119.701 58.2064 119.547 58.0697C119.394 57.9331 119.284 57.7539 119.231 57.5546C119.179 57.3554 119.186 57.145 119.252 56.9499C119.318 56.7547 119.44 56.5835 119.603 56.4578C119.765 56.332 119.961 56.2573 120.166 56.243C120.371 56.2287 120.575 56.2754 120.754 56.3774C120.873 56.4468 120.978 56.5393 121.062 56.6494C121.146 56.7596 121.207 56.8854 121.242 57.0194C121.278 57.1535 121.286 57.2933 121.268 57.4307C121.249 57.5682 121.204 57.7006 121.134 57.8204Z" fill="#425AC2"/>
    <path d="M96.5177 70.7425L95.4973 72.6736L107.03 78.818L108.05 76.8869L96.5177 70.7425Z" fill="#425AC2"/>
    <path d="M125.056 68.0257L107.866 77.5427L108.647 78.9643L125.837 69.4473L125.056 68.0257Z" fill="#425AC2"/>
    <path d="M112.857 78.7581C112.857 79.7459 112.565 80.7115 112.019 81.5327C111.472 82.3539 110.695 82.9938 109.786 83.3715C108.877 83.7491 107.877 83.8476 106.912 83.6544C105.948 83.4611 105.062 82.9849 104.367 82.2859C103.672 81.587 103.199 80.6967 103.008 79.7277C102.816 78.7587 102.916 77.7546 103.293 76.8425C103.671 75.9303 104.309 75.151 105.128 74.6033C105.946 74.0556 106.908 73.764 107.892 73.7654C108.545 73.7654 109.191 73.8946 109.794 74.1456C110.397 74.3966 110.944 74.7644 111.405 75.2282C111.867 75.6919 112.232 76.2423 112.481 76.848C112.73 77.4537 112.858 78.1028 112.857 78.7581Z" fill="#F79706"/>
    <path d="M94.808 43.2895C94.1534 41.8638 93.2091 40.5914 92.0356 39.5541C90.8621 38.5167 89.4855 37.7374 87.9942 37.266C86.5029 36.7947 84.9299 36.6419 83.3762 36.8174C81.8226 36.9928 80.3227 37.4927 78.9729 38.2849C77.6232 39.0771 76.4534 40.1441 75.5387 41.4173C74.624 42.6905 73.9847 44.1417 73.6618 45.6778C73.339 47.2138 73.3397 48.8007 73.664 50.3365C73.9882 51.8723 74.6288 53.3229 75.5447 54.5953C75.9217 55.1337 76.3475 55.6361 76.8165 56.096L94.808 43.2895Z" fill="#F7B306"/>
    <path d="M44.1312 61.5866L52.2145 36.623C52.451 35.8919 52.9235 35.2608 53.5572 34.8296C54.191 34.3984 54.9498 34.1916 55.7137 34.2421L80.7683 35.9159L76.2632 40.2449L59.5003 42.229L57.2369 58.3615L44.1312 61.5866Z" fill="#0055AA"/>
    <path d="M50.5259 57.6256L40.3877 37.128C40.2583 33.434 40.0931 27.8064 40.0931 22.7776C40.0931 20.3678 38.462 19.805 36.9029 20.1008C32.0673 21.0388 22.4248 23.9392 19.7519 24.7544C19.6955 24.7733 19.6456 24.8081 19.6084 24.8547C19.5712 24.9013 19.5482 24.9577 19.5421 25.0172C19.536 25.0766 19.5472 25.1365 19.5742 25.1898C19.6012 25.243 19.643 25.2872 19.6944 25.3172L24.0918 27.7414C24.1479 27.7591 24.2081 27.7591 24.2642 27.7414L33.2959 27.0199C33.3415 27.0164 33.3872 27.0231 33.4299 27.0394C33.4726 27.0558 33.5111 27.0815 33.5427 27.1146C33.5744 27.1477 33.5983 27.1875 33.6127 27.231C33.6272 27.2745 33.6319 27.3207 33.6264 27.3662C33.5474 28.0877 33.2744 29.9492 32.987 31.9116L32.5918 32.1353L19.5364 40.3531C19.238 40.5415 18.9588 40.759 18.7029 41.0024C16.4611 40.4613 14.3918 39.9491 13.6733 39.7398C13.6293 39.7263 13.5888 39.703 13.5549 39.6718C13.521 39.6405 13.4944 39.6021 13.4772 39.5592C13.46 39.5163 13.4525 39.4701 13.4554 39.424C13.4582 39.3778 13.4713 39.3329 13.4937 39.2925L17.7688 31.2695C17.799 31.2172 17.8116 31.1565 17.8048 31.0964L17.3377 26.0459C17.3328 25.9843 17.3098 25.9256 17.2715 25.8773C17.2332 25.829 17.1814 25.7932 17.1228 25.7746C17.0641 25.756 17.0013 25.7555 16.9423 25.7729C16.8833 25.7904 16.8308 25.8252 16.7916 25.8728C14.9882 28.0517 8.50718 35.786 5.7409 39.8697C4.84275 41.19 4.71342 42.9144 6.91926 43.874C12.2363 46.1755 18.1999 49.011 21.3398 50.5045L33.8707 67.5028L50.5259 57.6256Z" fill="#A4B8EA"/>
    <path d="M21.087 21.0331L18.0728 22.731L19.7636 25.7577L22.7778 24.0598L21.087 21.0331Z" fill="#03053F"/>
    <path d="M25.789 22.3571L22.7748 24.0549L24.4656 27.0816L27.4798 25.3838L25.789 22.3571Z" fill="#03053F"/>
    <path d="M27.1113 17.6367L24.097 19.3345L25.7879 22.3612L28.8021 20.6634L27.1113 17.6367Z" fill="#03053F"/>
    <path d="M31.8062 18.9606L28.792 20.6584L30.4828 23.6852L33.497 21.9873L31.8062 18.9606Z" fill="#03053F"/>
    <path d="M33.1382 14.2429L30.124 15.9407L31.8148 18.9674L34.829 17.2696L33.1382 14.2429Z" fill="#03053F"/>
    <path d="M37.8401 15.5671L34.8259 17.2649L36.5167 20.2916L39.531 18.5938L37.8401 15.5671Z" fill="#03053F"/>
    <path d="M24.4632 27.0788L21.449 28.7766L23.1398 31.8033L26.154 30.1055L24.4632 27.0788Z" fill="#03053F"/>
    <path d="M29.1652 28.4101L26.151 30.1079L27.8418 33.1346L30.856 31.4368L29.1652 28.4101Z" fill="#03053F"/>
    <path d="M30.491 23.6884L27.4768 25.3862L29.1676 28.4129L32.1818 26.7151L30.491 23.6884Z" fill="#03053F"/>
    <path d="M35.1921 25.0163L32.1779 26.7141L33.8687 29.7408L36.8829 28.043L35.1921 25.0163Z" fill="#03053F"/>
    <path d="M36.5143 20.2885L33.5001 21.9863L35.1909 25.013L38.2051 23.3152L36.5143 20.2885Z" fill="#03053F"/>
    <path d="M41.2199 21.6262L38.2057 23.324L39.8965 26.3507L42.9107 24.6529L41.2199 21.6262Z" fill="#03053F"/>
    <path d="M3.0089 31.2099L-0.00531006 32.9077L1.6855 35.9344L4.69971 34.2366L3.0089 31.2099Z" fill="#03053F"/>
    <path d="M7.71722 32.5375L4.703 34.2354L6.39381 37.2621L9.40802 35.5642L7.71722 32.5375Z" fill="#03053F"/>
    <path d="M9.03948 27.8171L6.02527 29.5149L7.71608 32.5416L10.7303 30.8438L9.03948 27.8171Z" fill="#03053F"/>
    <path d="M13.7343 29.1411L10.7201 30.8389L12.4109 33.8656L15.4251 32.1678L13.7343 29.1411Z" fill="#03053F"/>
    <path d="M15.0601 24.4269L12.0458 26.1248L13.7366 29.1515L16.7509 27.4536L15.0601 24.4269Z" fill="#03053F"/>
    <path d="M19.7684 25.7475L16.7542 27.4453L18.445 30.472L21.4592 28.7742L19.7684 25.7475Z" fill="#03053F"/>
    <path d="M6.39141 37.2592L3.3772 38.957L5.068 41.9837L8.08222 40.2859L6.39141 37.2592Z" fill="#03053F"/>
    <path d="M11.0934 38.5832L8.07922 40.281L9.77003 43.3077L12.7842 41.6099L11.0934 38.5832Z" fill="#03053F"/>
    <path d="M12.4192 33.8688L9.40503 35.5667L11.0958 38.5934L14.11 36.8955L12.4192 33.8688Z" fill="#03053F"/>
    <path d="M17.1203 35.1894L14.1061 36.8872L15.7969 39.9139L18.8111 38.2161L17.1203 35.1894Z" fill="#03053F"/>
    <path d="M18.4426 30.4689L15.4283 32.1667L17.1192 35.1935L20.1334 33.4956L18.4426 30.4689Z" fill="#03053F"/>
    <path d="M23.1481 31.8066L20.1339 33.5044L21.8247 36.5311L24.8389 34.8333L23.1481 31.8066Z" fill="#03053F"/>
    <path d="M27.8835 33.195L24.8693 34.8928L26.5601 37.9195L29.5743 36.2217L27.8835 33.195Z" fill="#03053F"/>
    <path d="M32.5854 34.5263L29.5712 36.2241L31.262 39.2508L34.2762 37.553L32.5854 34.5263Z" fill="#03053F"/>
    <path d="M33.9112 29.8046L30.897 31.5024L32.5878 34.5291L35.602 32.8313L33.9112 29.8046Z" fill="#03053F"/>
    <path d="M38.6061 31.1359L35.5919 32.8337L37.2827 35.8604L40.2969 34.1626L38.6061 31.1359Z" fill="#03053F"/>
    <path d="M39.9284 26.4081L36.9142 28.106L38.605 31.1327L41.6192 29.4348L39.9284 26.4081Z" fill="#03053F"/>
    <path d="M44.6366 27.736L41.6224 29.4338L43.3132 32.4605L46.3274 30.7627L44.6366 27.736Z" fill="#03053F"/>
    <path d="M31.2596 39.2404L28.2454 40.9382L29.9362 43.9649L32.9504 42.2671L31.2596 39.2404Z" fill="#03053F"/>
    <path d="M35.9617 40.5717L32.9474 42.2695L34.6383 45.2962L37.6525 43.5984L35.9617 40.5717Z" fill="#03053F"/>
    <path d="M37.2875 35.8503L34.2733 37.5481L35.9641 40.5748L38.9783 38.877L37.2875 35.8503Z" fill="#03053F"/>
    <path d="M41.9885 37.1779L38.9743 38.8757L40.6651 41.9024L43.6793 40.2046L41.9885 37.1779Z" fill="#03053F"/>
    <path d="M43.3143 32.4565L40.3001 34.1543L41.9909 37.181L45.0051 35.4832L43.3143 32.4565Z" fill="#03053F"/>
    <path d="M48.0092 33.7878L44.995 35.4856L46.6858 38.5123L49.7 36.8145L48.0092 33.7878Z" fill="#03053F"/>
    <path d="M9.80535 43.3788L6.79114 45.0767L8.48194 48.1034L11.4962 46.4056L9.80535 43.3788Z" fill="#03053F"/>
    <path d="M14.5137 44.6994L11.4995 46.3972L13.1903 49.4239L16.2045 47.7261L14.5137 44.6994Z" fill="#03053F"/>
    <path d="M15.8394 39.985L12.8252 41.6829L14.516 44.7096L17.5302 43.0118L15.8394 39.985Z" fill="#03053F"/>
    <path d="M20.5342 41.3163L17.52 43.0142L19.2108 46.0409L22.225 44.343L20.5342 41.3163Z" fill="#03053F"/>
    <path d="M21.8565 36.5886L18.8423 38.2864L20.5331 41.3131L23.5473 39.6153L21.8565 36.5886Z" fill="#03053F"/>
    <path d="M26.5586 37.9199L23.5444 39.6177L25.2352 42.6444L28.2494 40.9466L26.5586 37.9199Z" fill="#03053F"/>
    <path d="M13.1879 49.4208L10.1736 51.1187L11.8645 54.1454L14.8787 52.4475L13.1879 49.4208Z" fill="#03053F"/>
    <path d="M17.8899 50.7521L14.8757 52.45L16.5665 55.4767L19.5807 53.7788L17.8899 50.7521Z" fill="#03053F"/>
    <path d="M19.2157 46.0307L16.2015 47.7285L17.8923 50.7552L20.9065 49.0574L19.2157 46.0307Z" fill="#03053F"/>
    <path d="M23.9105 47.362L20.8962 49.0598L22.587 52.0865L25.6013 50.3887L23.9105 47.362Z" fill="#03053F"/>
    <path d="M25.2363 42.6406L22.222 44.3384L23.9129 47.3651L26.9271 45.6673L25.2363 42.6406Z" fill="#03053F"/>
    <path d="M29.9446 43.9682L26.9304 45.666L28.6212 48.6927L31.6354 46.9949L29.9446 43.9682Z" fill="#03053F"/>
    <path d="M34.6174 45.2643L31.6032 46.9622L33.294 49.9889L36.3082 48.2911L34.6174 45.2643Z" fill="#03053F"/>
    <path d="M39.3256 46.5849L36.3113 48.2827L38.0021 51.3094L41.0164 49.6116L39.3256 46.5849Z" fill="#03053F"/>
    <path d="M40.648 41.8642L37.6338 43.562L39.3246 46.5887L42.3388 44.8909L40.648 41.8642Z" fill="#03053F"/>
    <path d="M45.3428 43.1884L42.3286 44.8862L44.0194 47.9129L47.0336 46.2151L45.3428 43.1884Z" fill="#03053F"/>
    <path d="M46.6686 38.4667L43.6544 40.1646L45.3452 43.1913L48.3594 41.4934L46.6686 38.4667Z" fill="#03053F"/>
    <path d="M51.3769 39.7946L48.3627 41.4924L50.0535 44.5191L53.0677 42.8213L51.3769 39.7946Z" fill="#03053F"/>
    <path d="M37.9997 51.3063L34.9855 53.0042L36.6763 56.0308L39.6906 54.333L37.9997 51.3063Z" fill="#03053F"/>
    <path d="M42.7018 52.6376L39.6876 54.3354L41.3784 57.3622L44.3926 55.6643L42.7018 52.6376Z" fill="#03053F"/>
    <path d="M44.0276 47.9162L41.0134 49.614L42.7042 52.6407L45.7184 50.9429L44.0276 47.9162Z" fill="#03053F"/>
    <path d="M48.7224 49.2402L45.7082 50.938L47.399 53.9647L50.4132 52.2669L48.7224 49.2402Z" fill="#03053F"/>
    <path d="M50.0449 44.5197L47.0306 46.2175L48.7214 49.2442L51.7357 47.5464L50.0449 44.5197Z" fill="#03053F"/>
    <path d="M54.753 45.8474L51.7388 47.5452L53.4296 50.5719L56.4438 48.8741L54.753 45.8474Z" fill="#03053F"/>
    <path d="M16.5455 55.4374L13.5313 57.1353L15.2221 60.162L18.2363 58.4641L16.5455 55.4374Z" fill="#03053F"/>
    <path d="M21.2475 56.7687L18.2333 58.4666L19.9241 61.4933L22.9384 59.7954L21.2475 56.7687Z" fill="#03053F"/>
    <path d="M22.5698 52.041L19.5556 53.7388L21.2464 56.7655L24.2606 55.0677L22.5698 52.041Z" fill="#03053F"/>
    <path d="M27.2709 53.3688L24.2567 55.0667L25.9475 58.0934L28.9617 56.3955L27.2709 53.3688Z" fill="#03053F"/>
    <path d="M28.5967 48.6472L25.5825 50.345L27.2733 53.3717L30.2875 51.6739L28.5967 48.6472Z" fill="#03053F"/>
    <path d="M33.2987 49.9785L30.2845 51.6763L31.9753 54.703L34.9895 53.0052L33.2987 49.9785Z" fill="#03053F"/>
    <path d="M19.9217 61.4902L16.9075 63.188L18.5983 66.2147L21.6126 64.5169L19.9217 61.4902Z" fill="#03053F"/>
    <path d="M24.6301 62.8107L21.6158 64.5085L23.3067 67.5352L26.3209 65.8374L24.6301 62.8107Z" fill="#03053F"/>
    <path d="M25.9559 58.0966L22.9417 59.7944L24.6325 62.8211L27.6467 61.1233L25.9559 58.0966Z" fill="#03053F"/>
    <path d="M30.6506 59.4206L27.6364 61.1184L29.3272 64.1451L32.3414 62.4473L30.6506 59.4206Z" fill="#03053F"/>
    <path d="M31.973 54.7001L28.9587 56.3979L30.6495 59.4246L33.6638 57.7268L31.973 54.7001Z" fill="#03053F"/>
    <path d="M36.6812 56.0278L33.667 57.7256L35.3578 60.7523L38.372 59.0545L36.6812 56.0278Z" fill="#03053F"/>
    <path d="M41.4139 57.426L38.3997 59.1238L40.0905 62.1505L43.1047 60.4527L41.4139 57.426Z" fill="#03053F"/>
    <path d="M46.122 58.7539L43.1078 60.4517L44.7986 63.4784L47.8128 61.7805L46.122 58.7539Z" fill="#03053F"/>
    <path d="M47.4445 54.0261L44.4302 55.7239L46.121 58.7506L49.1353 57.0528L47.4445 54.0261Z" fill="#03053F"/>
    <path d="M52.1428 55.3635L49.1285 57.0613L50.8193 60.088L53.8336 58.3902L52.1428 55.3635Z" fill="#03053F"/>
    <path d="M53.465 50.6357L50.4508 52.3335L52.1416 55.3602L55.1558 53.6624L53.465 50.6357Z" fill="#03053F"/>
    <path d="M58.1669 51.9599L55.1527 53.6577L56.8435 56.6844L59.8577 54.9866L58.1669 51.9599Z" fill="#03053F"/>
    <path d="M23.3419 67.6064L20.3277 69.3042L22.0185 72.3309L25.0327 70.6331L23.3419 67.6064Z" fill="#03053F"/>
    <path d="M28.044 68.9306L25.0298 70.6284L26.7206 73.6551L29.7348 71.9573L28.044 68.9306Z" fill="#03053F"/>
    <path d="M29.3663 64.2099L26.3521 65.9077L28.0429 68.9344L31.0571 67.2366L29.3663 64.2099Z" fill="#03053F"/>
    <path d="M34.0673 65.5305L31.0531 67.2283L32.7439 70.255L35.7581 68.5572L34.0673 65.5305Z" fill="#03053F"/>
    <path d="M35.3931 60.8161L32.3789 62.5139L34.0697 65.5406L37.0839 63.8428L35.3931 60.8161Z" fill="#03053F"/>
    <path d="M40.0951 62.1403L37.0809 63.8381L38.7717 66.8648L41.7859 65.167L40.0951 62.1403Z" fill="#03053F"/>
    <path d="M27.3106 38.4843C24.2067 39.9272 23.4666 38.3472 23.1648 37.871L21.153 34.6315C20.7003 33.91 21.8212 33.2823 22.4679 32.8783L24.53 31.5724C25.1767 31.1683 26.6352 31.0745 27.0879 31.8105L29.4949 35.5262C29.8039 35.9951 30.3931 37.0413 27.3106 38.4843Z" fill="#F79706"/>
    <path d="M28.0795 29.3432C29.0207 32.7053 26.3838 33.7587 23.0499 34.7038C21.4415 35.1573 19.7196 34.9507 18.263 34.1294C16.8064 33.3081 15.7344 31.9394 15.2827 30.3244C14.8311 28.7094 15.0369 26.9804 15.8548 25.5177C16.6727 24.0551 18.0358 22.9786 19.6441 22.5251C22.9924 21.5799 27.1454 25.9738 28.0795 29.3432Z" fill="#F7B306"/>
    <path d="M18.4227 26.9765C18.4227 26.9765 19.6011 28.874 19.3424 29.0327C19.0838 29.1914 17.8623 29.4223 17.7186 30.7859C17.5749 32.1496 18.9257 32.568 19.8741 32.2289C20.8226 31.8898 21.6561 34.4872 19.3999 35.353C17.1438 36.2188 13.4578 31.9187 13.3572 29.4368C13.2566 26.9548 15.3044 22.8495 16.5546 22.2218C17.8048 21.5941 28.1227 20.9592 28.1227 20.9592L18.4227 26.9765Z" fill="#C0D1F2"/>
    <path d="M83.2974 34.0688L84.4757 37.6763L87.2133 36.7744L84.8278 29.509C84.6769 29.0256 83.5488 29.2204 83.4554 29.711L83.2974 34.0688Z" fill="#112256"/>
    <path d="M33.8707 67.5028L50.5259 57.6255L64.4866 42.3083L83.2973 34.0688L84.4757 37.6763L69.4947 48.9676C69.4947 48.9676 60.6066 70.129 51.3163 73.2314C42.0259 76.3338 33.8707 67.5028 33.8707 67.5028Z" fill="#425AC2"/>
    <path d="M29.3442 109.559C29.3442 108.918 29.5334 108.292 29.8879 107.759C30.2424 107.226 30.7462 106.811 31.3357 106.566C31.9252 106.32 32.5739 106.256 33.1997 106.381C33.8255 106.506 34.4003 106.815 34.8515 107.268C35.3027 107.721 35.61 108.298 35.7344 108.927C35.8589 109.555 35.795 110.206 35.5509 110.798C35.3067 111.39 34.8932 111.896 34.3626 112.252C33.8321 112.608 33.2084 112.798 32.5703 112.798C31.7147 112.798 30.8941 112.457 30.2891 111.849C29.6841 111.242 29.3442 110.418 29.3442 109.559Z" fill="#F7B206"/>
    <path d="M42.9456 109.559C42.9456 108.918 43.1348 108.292 43.4893 107.759C43.8438 107.226 44.3477 106.811 44.9372 106.566C45.5267 106.32 46.1753 106.256 46.8011 106.381C47.4269 106.506 48.0018 106.815 48.453 107.268C48.9041 107.721 49.2114 108.298 49.3359 108.927C49.4604 109.555 49.3965 110.206 49.1523 110.798C48.9081 111.39 48.4946 111.896 47.9641 112.252C47.4336 112.608 46.8098 112.798 46.1717 112.798C45.3161 112.798 44.4955 112.457 43.8905 111.849C43.2855 111.242 42.9456 110.418 42.9456 109.559Z" fill="#F7B206"/>
    <path d="M56.5471 109.559C56.5471 108.918 56.7363 108.292 57.0908 107.759C57.4453 107.226 57.9491 106.811 58.5386 106.566C59.1281 106.32 59.7768 106.256 60.4026 106.381C61.0284 106.506 61.6032 106.815 62.0544 107.268C62.5056 107.721 62.8129 108.298 62.9373 108.927C63.0618 109.555 62.9979 110.206 62.7537 110.798C62.5096 111.39 62.0961 111.896 61.5655 112.252C61.035 112.608 60.4113 112.798 59.7732 112.798C58.9176 112.798 58.097 112.457 57.492 111.849C56.887 111.242 56.5471 110.418 56.5471 109.559Z" fill="#F7B206"/>
    <path d="M54.8515 21.3057C54.8515 21.4484 54.8093 21.5879 54.7304 21.7066C54.6514 21.8252 54.5392 21.9177 54.4079 21.9723C54.2766 22.0269 54.1321 22.0412 53.9928 22.0133C53.8534 21.9855 53.7254 21.9168 53.6249 21.8159C53.5244 21.715 53.456 21.5864 53.4282 21.4465C53.4005 21.3065 53.4147 21.1615 53.4691 21.0296C53.5235 20.8978 53.6156 20.7851 53.7338 20.7058C53.8519 20.6265 53.9908 20.5842 54.1329 20.5842C54.3235 20.5842 54.5063 20.6602 54.641 20.7955C54.7758 20.9309 54.8515 21.1144 54.8515 21.3057Z" fill="#03053F"/>
    <path d="M79.1731 11.5005C79.1731 11.6432 79.131 11.7827 79.052 11.9014C78.9731 12.02 78.8609 12.1125 78.7296 12.1671C78.5983 12.2217 78.4538 12.236 78.3144 12.2082C78.175 12.1803 78.047 12.1116 77.9465 12.0107C77.846 11.9098 77.7776 11.7813 77.7499 11.6413C77.7222 11.5013 77.7364 11.3563 77.7908 11.2244C77.8452 11.0926 77.9373 10.9799 78.0554 10.9006C78.1736 10.8214 78.3125 10.7791 78.4546 10.7791C78.6452 10.7791 78.8279 10.8551 78.9627 10.9904C79.0974 11.1257 79.1731 11.3092 79.1731 11.5005Z" fill="#03053F"/>
    <path d="M103.107 21.1324C103.107 21.2751 103.065 21.4146 102.986 21.5332C102.907 21.6519 102.795 21.7443 102.663 21.799C102.532 21.8536 102.388 21.8678 102.248 21.84C102.109 21.8122 101.981 21.7435 101.88 21.6426C101.78 21.5416 101.711 21.4131 101.684 21.2731C101.656 21.1332 101.67 20.9881 101.724 20.8563C101.779 20.7244 101.871 20.6118 101.989 20.5325C102.107 20.4532 102.246 20.4109 102.388 20.4109C102.579 20.4109 102.762 20.4869 102.896 20.6222C103.031 20.7575 103.107 20.941 103.107 21.1324Z" fill="#03053F"/>
</svg>