<svg class="social-list-item__link" width="26" height="26" viewBox="0 0 26 26" fill="none"
     xmlns="http://www.w3.org/2000/svg">
    <path d="M14.4013 14.3293C13.9845 14.0866 13.4052 14.0866 12.9345 14.0866H11.3888V17.2716H12.8074C13.3326 17.2716 14.0024 17.3092 14.4552 16.9913C14.8709 16.7115 15.1063 16.1623 15.1063 15.6393C15.1063 15.1534 14.817 14.5722 14.4013 14.3293ZM13.8182 11.6093C14.1621 11.3474 14.3425 10.8805 14.3425 10.4504C14.3425 9.98319 14.1256 9.53469 13.7277 9.29202C13.3115 9.04935 12.5507 9.10542 12.0621 9.10542H11.3888V11.9085H12.2796C12.7863 11.9083 13.384 11.9456 13.8182 11.6093ZM21.4297 0H4.56977C2.04615 0 0 2.04615 0 4.57031V21.4297C0 23.9533 2.04615 26 4.56977 26H21.4297C23.9533 26 26 23.9533 26 21.4297V4.57031C26 2.04615 23.9533 0 21.4297 0ZM13.7053 19.6449H8.39367V6.82527H14.1971C15.8781 6.82527 17.4292 7.89533 17.4292 9.78277C17.4292 11.2401 16.6156 12.2381 15.5778 12.5483V12.5859C17.1167 12.9039 18.2157 13.7396 18.2157 15.756C18.2157 17.622 16.945 19.6449 13.7053 19.6449Z"
          fill="#7D8C93"/>
</svg>