<svg class="social-list-item__link" width="26" height="26" viewBox="0 0 26 26" fill="none"
     xmlns="http://www.w3.org/2000/svg">
    <path fill-rule="evenodd" clip-rule="evenodd"
          d="M4.56977 0H21.4297C23.9533 0 26 2.04615 26 4.57031V21.4297C26 23.9533 23.9533 26 21.4297 26H4.56977C2.04615 26 0 23.9533 0 21.4297V4.57031C0 2.04615 2.04615 0 4.56977 0ZM16.78 4H9.22C7.83557 4 6.50784 4.54996 5.5289 5.5289C4.54996 6.50784 4 7.83557 4 9.22V16.78C4 19.66 6.34 22 9.22 22H16.78C18.1644 22 19.4922 21.45 20.4711 20.4711C21.45 19.4922 22 18.1644 22 16.78V9.22C22 6.34 19.66 4 16.78 4ZM6.74897 6.74897C7.35659 6.14136 8.1807 5.8 9.04 5.8H16.96C18.751 5.8 20.2 7.249 20.2 9.04V16.96C20.2 17.8193 19.8586 18.6434 19.251 19.251C18.6434 19.8586 17.8193 20.2 16.96 20.2H9.04C7.249 20.2 5.8 18.751 5.8 16.96V9.04C5.8 8.1807 6.14136 7.35659 6.74897 6.74897ZM18.5205 7.4795C18.3095 7.26853 18.0234 7.15 17.725 7.15C17.4266 7.15 17.1405 7.26853 16.9295 7.4795C16.7185 7.69048 16.6 7.97663 16.6 8.275C16.6 8.57337 16.7185 8.85952 16.9295 9.0705C17.1405 9.28147 17.4266 9.4 17.725 9.4C18.0234 9.4 18.3095 9.28147 18.5205 9.0705C18.7315 8.85952 18.85 8.57337 18.85 8.275C18.85 7.97663 18.7315 7.69048 18.5205 7.4795ZM16.182 9.81802C15.3381 8.97411 14.1935 8.5 13 8.5C11.8065 8.5 10.6619 8.97411 9.81802 9.81802C8.97411 10.6619 8.5 11.8065 8.5 13C8.5 14.1935 8.97411 15.3381 9.81802 16.182C10.6619 17.0259 11.8065 17.5 13 17.5C14.1935 17.5 15.3381 17.0259 16.182 16.182C17.0259 15.3381 17.5 14.1935 17.5 13C17.5 11.8065 17.0259 10.6619 16.182 9.81802ZM11.0908 11.0908C11.5972 10.5845 12.2839 10.3 13 10.3C13.7161 10.3 14.4028 10.5845 14.9092 11.0908C15.4155 11.5972 15.7 12.2839 15.7 13C15.7 13.7161 15.4155 14.4028 14.9092 14.9092C14.4028 15.4155 13.7161 15.7 13 15.7C12.2839 15.7 11.5972 15.4155 11.0908 14.9092C10.5845 14.4028 10.3 13.7161 10.3 13C10.3 12.2839 10.5845 11.5972 11.0908 11.0908Z"
          fill="#7D8C93"/>
</svg>