<svg width="113" height="90" viewBox="0 0 113 90" fill="none" xmlns="http://www.w3.org/2000/svg">
    <circle cx="40" cy="44" r="40" fill="#D4DEE1"/>
    <g>
        <path d="M46.2791 9.70921C46.757 9.70921 47.2335 9.51489 47.5803 9.1338L47.581 9.13243C48.234 8.41419 48.1804 7.3032 47.4622 6.6502C46.7439 5.9972 45.6323 6.05007 44.9786 6.76899C44.3256 7.48722 44.3784 8.5989 45.0974 9.2519C45.4338 9.55815 45.8568 9.70921 46.2791 9.70921Z"
              fill="#BAD1D8"/>
        <path d="M57.6291 28.2239C57.6291 27.253 56.8422 26.4661 55.8713 26.4661H55.8699C54.8997 26.4661 54.1128 27.253 54.1128 28.2239C54.1128 29.1948 54.9011 29.9817 55.8713 29.9817C56.8422 29.9817 57.6291 29.1948 57.6291 28.2239Z"
              fill="#BAD1D8"/>
        <path d="M66.4187 29.9817C67.3889 29.9817 68.1765 29.1948 68.1765 28.2239C68.1765 27.253 67.3889 26.4661 66.4187 26.4661H66.4173C65.4464 26.4661 64.6602 27.253 64.6602 28.2239C64.6602 29.1948 65.4477 29.9817 66.4187 29.9817Z"
              fill="#BAD1D8"/>
        <path d="M57.7223 37.3954C58.6699 38.2242 59.8853 38.6808 61.1446 38.6808C62.4032 38.6808 63.6186 38.2242 64.5661 37.3954C65.2974 36.7562 65.3716 35.6458 64.733 34.9153C64.093 34.184 62.9827 34.1098 62.2521 34.7491C61.9452 35.0169 61.5524 35.1652 61.1446 35.1652C60.7367 35.1652 60.3433 35.0176 60.0363 34.7491C59.3057 34.1098 58.1947 34.184 57.5562 34.9153C56.9169 35.6458 56.9917 36.7562 57.7223 37.3954Z"
              fill="#BAD1D8"/>
        <path d="M41.8989 72.4219C40.9287 72.4219 40.1411 73.2088 40.1411 74.1797V88.2422C40.1411 89.2124 40.9287 89.9993 41.8989 89.9993C42.8698 89.9993 43.6567 89.2124 43.6567 88.2422V74.1797C43.6567 73.2088 42.8698 72.4219 41.8989 72.4219Z"
              fill="#BAD1D8"/>
        <path d="M105.102 57.7112C105.077 57.6755 105.05 57.6425 105.023 57.6096C104.667 57.168 104.285 56.741 103.875 56.3317C100.927 53.3826 97.0376 51.7202 92.8854 51.6124C93.9593 49.7585 94.5423 47.6353 94.5423 45.4113C94.5423 39.1985 89.9507 34.0418 83.9954 33.1828V22.9504C83.9954 10.2956 73.7445 0 61.1445 0C58.0684 0 55.078 0.611114 52.2573 1.81618C51.3646 2.19727 50.9499 3.23067 51.3317 4.12331C51.7128 5.01595 52.7455 5.43068 53.6388 5.0489C56.0208 4.0313 58.5456 3.51562 61.1445 3.51562C71.8061 3.51562 80.4798 12.234 80.4798 22.9504V34.815C80.4798 35.7859 81.2674 36.5728 82.2376 36.5728C87.0839 36.5728 91.0267 40.5375 91.0267 45.4113C91.0267 48.1133 89.8305 50.6092 87.7404 52.2984C86.1309 52.7872 84.61 53.5316 83.2216 54.5039L74.7545 51.2176C74.7504 51.2162 74.7463 51.2148 74.7422 51.2135L70.8338 49.696C69.6534 49.238 69.0252 48.0659 69.0252 47.3964V42.8996C69.7152 42.423 70.3909 41.9005 71.037 41.3367C74.817 38.0367 76.8982 34.0398 76.8982 30.0806V23.199C76.8982 22.2281 76.1113 21.4412 75.1404 21.4412C71.2671 21.4412 67.7556 20.2801 65.2507 18.2119C65.5926 17.7979 65.9002 17.3591 66.1673 16.8942C66.6514 16.0531 66.361 14.9785 65.5192 14.4944C64.6773 14.011 63.6027 14.3008 63.1193 15.1426C62.7568 15.7736 62.2645 16.347 61.6733 16.8654C61.6396 16.8915 61.6073 16.9189 61.5751 16.9478C61.5648 16.9567 61.5551 16.9663 61.5448 16.9759C58.0313 19.9422 51.2445 21.0938 47.148 21.0938C46.177 21.0938 45.3901 21.8806 45.3901 22.8516V30.0813C45.3901 34.0398 47.4714 38.0367 51.2513 41.3367C51.8975 41.9005 52.5731 42.4237 53.2632 42.8996V47.3964C53.2632 48.0666 52.6349 49.2387 51.4546 49.696L47.5428 51.2148C47.5407 51.2155 47.538 51.2162 47.5359 51.2176L39.7418 54.2422C35.0383 54.0775 31.2617 50.1807 31.2617 45.4113C31.2617 40.5375 35.2044 36.5728 40.0508 36.5728C41.021 36.5728 41.8086 35.7859 41.8086 34.815V22.9504C41.8086 20.3048 42.3359 17.7347 43.3755 15.3115C43.7587 14.4196 43.346 13.3862 42.454 13.003C41.5614 12.6199 40.528 13.0332 40.1449 13.9252C38.9158 16.7885 38.293 19.8255 38.293 22.9511V33.1835C32.3377 34.0425 27.7461 39.1985 27.7461 45.412C27.7461 50.2453 30.527 54.4373 34.5652 56.4656C32.5993 57.8485 31.3929 60.2435 31.3929 62.953V88.2422C31.3929 89.2131 32.1805 90 33.1507 90C34.1216 90 34.9085 89.2131 34.9085 88.2422V62.9523C34.9085 61.4713 35.5333 59.6468 37.2863 58.9664L47.7604 54.9014L56.6484 63.8313C57.8459 65.0336 59.4423 65.6955 61.1445 65.6955C62.8467 65.6955 64.4432 65.0336 65.6393 63.8313L74.5279 54.9014L80.2903 57.1378C78.7927 58.8496 77.6893 60.8265 77.0294 62.9592C75.6396 63.6617 74.3748 64.5728 73.2597 65.6776C73.2535 65.6838 73.2467 65.69 73.2405 65.6962C73.2309 65.7058 73.2206 65.7147 73.211 65.7243L62.879 76.0563C59.6188 79.3165 58.056 83.8319 58.5909 88.4441C58.6953 89.3401 59.4547 90 60.335 90C60.403 90 60.4709 89.9959 60.5396 89.9883C61.5037 89.8764 62.1951 89.0037 62.0832 88.0396C61.6726 84.5 62.8687 81.0379 65.3647 78.5426L71.1744 72.7329C71.1002 75.3394 71.4957 78.3154 72.3753 81.4018C72.5957 82.1743 73.2995 82.6783 74.0645 82.6783C74.2244 82.6783 74.3865 82.6563 74.5472 82.6103C75.481 82.3446 76.0221 81.3723 75.7564 80.4385C74.072 74.5292 74.5623 70.0275 75.8092 68.1036C75.972 67.9443 76.1395 67.7911 76.3105 67.6435C76.3105 67.6792 76.3084 67.7142 76.3084 67.7506C76.3084 72.0634 77.9879 76.1188 81.038 79.1689C84.1856 82.3164 88.3213 83.8909 92.4563 83.8909C92.494 83.8909 92.5318 83.8882 92.5702 83.8882C92.3862 84.101 92.196 84.3098 91.9962 84.5096L89.5064 86.9994C88.8205 87.686 88.8205 88.7991 89.5064 89.485C89.8498 89.8283 90.2995 90 90.7499 90C91.1997 90 91.6494 89.8283 91.9928 89.485L94.4819 86.9959C95.6121 85.8657 96.5411 84.5782 97.2552 83.1624C99.6784 82.4126 101.959 81.0839 103.874 79.1689C109.73 73.3131 110.137 64.0448 105.102 57.7112ZM48.9058 30.0813V24.5524C52.8608 24.3093 58.5779 23.2478 62.594 20.5637C65.3756 23.0322 69.1749 24.5558 73.3826 24.8875V30.0813C73.3826 34.2698 69.913 38.1816 66.3981 40.4263C66.3493 40.4537 66.3026 40.4832 66.2573 40.5155C64.3786 41.6911 62.5 42.3853 61.1445 42.3853C59.7884 42.3853 57.9104 41.6911 56.0311 40.5155C55.9858 40.4832 55.9391 40.4537 55.8903 40.4263C52.3754 38.1816 48.9058 34.2698 48.9058 30.0813ZM63.1482 61.3511C62.616 61.8853 61.9047 62.1799 61.1445 62.1799C60.3844 62.1799 59.6731 61.8853 59.1409 61.3511L51.3392 53.5123L52.7269 52.974C55.387 51.9413 56.7788 49.3863 56.7788 47.3964V44.8586C58.341 45.5273 59.8523 45.9009 61.1445 45.9009C62.4368 45.9009 63.9481 45.5273 65.5102 44.8586V47.3964C65.5102 49.3863 66.9021 51.9413 69.5621 52.974L70.9498 53.5123L63.1482 61.3511ZM83.5244 76.6825C81.1383 74.2964 79.8247 71.1241 79.8247 67.7499C79.8247 66.7104 79.9504 65.6907 80.1921 64.7067C80.2031 64.6703 80.212 64.6326 80.2209 64.5955C80.7757 62.4284 81.9011 60.4406 83.5244 58.8174C85.9105 56.4313 89.0828 55.1177 92.4569 55.1177C95.8311 55.1177 99.0034 56.4313 101.389 58.8174C101.676 59.1044 101.944 59.4024 102.198 59.7093C102.647 60.6143 102.249 61.623 101.631 62.2417C101.211 62.6605 100.653 62.8919 100.06 62.8919C99.4669 62.8919 98.9087 62.6612 98.4891 62.2417C97.8025 61.555 96.6901 61.555 96.0035 62.2417C95.3168 62.9276 95.3168 64.0407 96.0035 64.7273C97.087 65.8109 98.5276 66.4075 100.06 66.4075C101.592 66.4075 103.033 65.8109 104.116 64.7273C104.282 64.5612 104.434 64.3847 104.578 64.2048C105.823 68.4901 104.761 73.3104 101.389 76.6825C96.4642 81.6078 88.4497 81.6078 83.5244 76.6825Z"
              fill="#BAD1D8"/>
        <path d="M90.3897 62.9715C89.8768 62.4593 89.2354 62.0892 88.5357 61.9018C87.5964 61.6504 86.6344 62.2073 86.3831 63.1453C86.1318 64.0825 86.6886 65.0466 87.6259 65.2979C87.731 65.3261 87.8271 65.381 87.9033 65.4579C87.9809 65.5348 88.0358 65.6302 88.064 65.7353C88.2741 66.5208 88.9848 67.0392 89.7607 67.0392C89.9111 67.0392 90.0642 67.0193 90.2166 66.9788C91.1546 66.7275 91.7108 65.7641 91.4602 64.8262C91.2727 64.1258 90.9026 63.4852 90.3897 62.9715Z"
              fill="#BAD1D8"/>
        <path d="M97.2344 69.8161C96.7215 69.3039 96.0808 68.9338 95.3804 68.7463C94.4425 68.495 93.4791 69.0519 93.2278 69.9891C92.9765 70.9271 93.5334 71.8911 94.4706 72.1424C94.5757 72.1706 94.6718 72.2262 94.7487 72.3024C94.8256 72.3793 94.8806 72.4755 94.9087 72.5798C95.1188 73.3654 95.8295 73.8838 96.6054 73.8838C96.7558 73.8838 96.9096 73.8639 97.0614 73.8234C97.9993 73.572 98.5555 72.6087 98.3049 71.6707C98.1174 70.9703 97.7473 70.3297 97.2344 69.8161Z"
              fill="#BAD1D8"/>
        <path d="M89.5331 71.0554C89.4343 71.0485 89.3409 71.0066 89.2715 70.9366C89.2008 70.8666 89.1589 70.7732 89.152 70.6743C89.0868 69.7054 88.2512 68.9735 87.2803 69.038C86.3121 69.1032 85.5794 69.941 85.6447 70.9098C85.7078 71.8581 86.113 72.75 86.7852 73.4223C87.4574 74.0945 88.35 74.4996 89.2983 74.5628C89.3381 74.5655 89.3773 74.5669 89.4171 74.5669C90.3344 74.5669 91.1069 73.8555 91.1694 72.9265C91.2339 71.9576 90.5013 71.1199 89.5331 71.0554Z"
              fill="#BAD1D8"/>
        <path d="M78.6881 87.548C78.3056 86.656 77.2722 86.2433 76.3803 86.6258C75.4877 87.0083 75.0743 88.0417 75.4574 88.9343C75.7431 89.6011 76.3913 90 77.0738 90C77.3045 90 77.5394 89.954 77.7653 89.8572C78.6572 89.4747 79.0713 88.442 78.6888 87.5494L78.6881 87.548Z"
              fill="#BAD1D8"/>
    </g>
</svg>
