<svg width="17" height="19" viewBox="0 0 17 19" fill="none" xmlns="http://www.w3.org/2000/svg">
    <path d="M8.64973 0.130371C4.35107 0.130371 0.869385 0.616657 0.869385 4.02052V13.7459C0.869385 14.6066 1.24868 15.3701 1.84191 15.905V17.6361C1.84191 18.171 2.27955 18.6086 2.81444 18.6086H3.78701C4.32677 18.6086 4.75953 18.171 4.75953 17.6361V16.6636H12.5399V17.6361C12.5399 18.171 12.9726 18.6086 13.5124 18.6086H14.4849C15.0198 18.6086 15.4575 18.171 15.4575 17.6361V15.905C16.0507 15.3701 16.43 14.6067 16.43 13.746V4.02052C16.43 0.616657 12.9483 0.130371 8.64973 0.130371ZM4.27329 14.7185C3.46607 14.7185 2.81448 14.0669 2.81448 13.2597C2.81448 12.4524 3.46607 11.8009 4.27329 11.8009C5.08052 11.8009 5.7321 12.4524 5.7321 13.2597C5.7321 14.0669 5.08047 14.7185 4.27329 14.7185ZM13.0262 14.7185C12.2189 14.7185 11.5673 14.0669 11.5673 13.2597C11.5673 12.4524 12.2189 11.8009 13.0262 11.8009C13.8334 11.8009 14.485 12.4524 14.485 13.2597C14.485 14.0669 13.8333 14.7185 13.0262 14.7185ZM14.485 8.88324H2.81448V4.02052H14.485V8.88324Z"
          fill="white"/>
</svg>