<svg width="28" height="42" viewBox="0 0 28 42" fill="none" xmlns="http://www.w3.org/2000/svg">
<path d="M27.3596 0H0.640578C0.28688 0 8.51818e-05 0.276035 8.51818e-05 0.616465V24.3616C8.51818e-05 24.7021 0.28688 24.9781 0.640578 24.9781C0.994277 24.9781 1.28107 24.7022 1.28107 24.3616V1.23285H26.7192V40.7671H25.2739V32.4335C25.2739 32.0931 24.9871 31.8171 24.6334 31.8171C24.2797 31.8171 23.9929 32.0931 23.9929 32.4335V40.7671H4.00728V3.85686H23.9929V29.9678C23.9929 30.3082 24.2796 30.5843 24.6334 30.5843C24.9871 30.5843 25.2739 30.3082 25.2739 29.9678V3.2404C25.2739 2.89997 24.9871 2.62393 24.6334 2.62393H3.36679C3.01309 2.62393 2.72629 2.89989 2.72629 3.2404V40.7672H1.28099V26.8274C1.28099 26.487 0.994192 26.211 0.640493 26.211C0.286794 26.211 0 26.4869 0 26.8274V41.3835C0 41.724 0.286794 42 0.640493 42H27.3595C27.7132 42 28 41.724 28 41.3835V0.616465C28.0001 0.276035 27.7133 0 27.3596 0V0Z" fill="#72929F"/>
<path d="M6.92565 13.7484C6.57195 13.7484 6.28516 14.0245 6.28516 14.3649V20.2623C6.28516 20.6027 6.57195 20.8788 6.92565 20.8788H21.0745C21.4282 20.8788 21.715 20.6027 21.715 20.2623V6.58424C21.715 6.24381 21.4282 5.96777 21.0745 5.96777H6.92565C6.57195 5.96777 6.28516 6.24373 6.28516 6.58424V11.8991C6.28516 12.2396 6.57195 12.5156 6.92565 12.5156C7.27935 12.5156 7.56614 12.2396 7.56614 11.8991V7.2007H20.434V19.6458H7.56606V14.3648C7.56606 14.0244 7.27935 13.7484 6.92565 13.7484Z" fill="#72929F"/>
<path d="M6.28516 38.0396C6.28516 38.3801 6.57195 38.6561 6.92565 38.6561H21.0745C21.4282 38.6561 21.715 38.3801 21.715 38.0396V24.3616C21.715 24.0212 21.4282 23.7451 21.0745 23.7451H6.92565C6.57195 23.7451 6.28516 24.0211 6.28516 24.3616V38.0396ZM7.56606 24.978H20.4339V37.4232H7.56606V24.978Z" fill="#72929F"/>
<path d="M23.4022 22.312C23.4022 21.6704 22.8598 21.1483 22.1931 21.1483C21.7619 21.1483 21.3836 21.3675 21.1695 21.6955H19.6412C19.2875 21.6955 19.0007 21.9715 19.0007 22.312C19.0007 22.6524 19.2875 22.9285 19.6412 22.9285H21.1695C21.3836 23.2565 21.7618 23.4757 22.1931 23.4757C22.8598 23.4757 23.4022 22.9537 23.4022 22.312Z" fill="#72929F"/>
</svg>
