<svg width="40" height="40" viewBox="0 0 40 40" fill="none" xmlns="http://www.w3.org/2000/svg">
<path d="M26.5726 11.4465C25.8987 10.5716 24.6432 10.4083 23.768 11.0822L16.6974 16.5237C15.5002 14.5221 14.8022 12.2617 14.6634 9.93347C14.0289 3.58917 13.4375 0 8.66669 0H0.666809C0.298462 0 0 0.298462 0 0.666809V39.3332C0 39.7015 0.298462 40 0.666809 40H27.3334C27.659 40 27.9367 39.765 27.9907 39.444C28.183 38.1601 28.2907 36.8652 28.313 35.5673L29.0189 36.4844C29.3411 36.9061 29.819 37.1814 30.3455 37.2485C30.4324 37.2598 30.52 37.2653 30.6076 37.2656C31.048 37.2656 31.4758 37.1191 31.824 36.8497L39.22 31.1569C40.0943 30.4825 40.2573 29.2276 39.5847 28.3521L26.5726 11.4465ZM26.7532 38.6667H24.8334C25.1257 37.352 25.2933 36.0129 25.3333 34.6667C25.3333 34.2984 25.0348 33.9999 24.6667 33.9999C24.2984 33.9999 23.9999 34.2984 23.9999 34.6667C23.9514 36.0138 23.7735 37.3532 23.4692 38.6667H1.33331V1.33331H8.66669C11.991 1.33331 12.6495 3.19397 13.3365 10.0671C13.6536 13.2123 14.4156 15.5377 15.7767 17.5424C15.4718 18.212 15.5603 18.9948 16.0068 19.5795L26.9669 33.8181C27.0215 35.4373 26.9501 37.0584 26.7532 38.6667ZM38.4061 30.101L31.0107 35.7935C30.7187 36.0178 30.3003 35.9631 30.0757 35.6714L17.0636 18.7656C16.839 18.4738 16.8933 18.0554 17.1848 17.8308L24.581 12.1381C24.873 11.9141 25.2914 11.9687 25.5161 12.2604L38.5287 29.166C38.7524 29.458 38.6978 29.8764 38.4064 30.101H38.4061Z" fill="#72929F"/>
<path d="M28.8107 19.8191C28.3615 19.2359 27.5244 19.1272 26.9409 19.5761L26.1276 18.5202C25.6964 17.9596 25.0601 17.5934 24.3585 17.5022C23.6572 17.4109 22.9483 17.602 22.3876 18.0335L21.8594 18.4403C21.6659 18.584 21.5652 18.8208 21.5957 19.0598C21.6265 19.299 21.7837 19.5029 22.0068 19.5932C22.2302 19.6836 22.485 19.6466 22.6733 19.4962L23.2012 19.0894C23.4817 18.8742 23.836 18.7787 24.1867 18.8239C24.5376 18.8687 24.8559 19.0521 25.0708 19.3332L25.8844 20.3897C25.6039 20.6052 25.4208 20.9235 25.3753 21.2744C25.3295 21.6251 25.4251 21.9794 25.6408 22.2598L30.9277 29.1269C31.6018 30.0009 32.8561 30.1645 33.732 29.4928L33.7326 29.4922C34.606 28.8172 34.769 27.5626 34.0966 26.687L28.8107 19.8191ZM32.9187 28.4357C32.6269 28.66 32.2082 28.6057 31.9836 28.3139L26.6977 21.4466L27.7542 20.633L33.0398 27.5C33.2647 27.7921 33.2104 28.2108 32.9187 28.4357Z" fill="#72929F"/>
<path d="M11.7039 9.64384C11.6756 8.37736 11.5474 7.11516 11.3203 5.86912C10.5415 1.97264 4.82681 2.63945 4.58419 2.6718C4.34555 2.69865 4.13955 2.85155 4.04525 3.07249C3.95096 3.29344 3.98269 3.54796 4.12857 3.739C4.27444 3.93004 4.51156 4.02769 4.7496 3.99473C4.79843 3.98894 9.47433 3.43626 10.0133 6.13096C10.2257 7.31077 10.3456 8.50554 10.3718 9.70427C10.4549 11.5143 10.5333 13.2232 11.404 14.9646C11.5105 15.1776 11.7226 15.3177 11.9603 15.332C12.198 15.3464 12.4254 15.2325 12.5566 15.0339C12.6878 14.8349 12.7031 14.5813 12.5966 14.3683C11.8523 12.8799 11.7833 11.38 11.7039 9.64384Z" fill="#72929F"/>
</svg>
