<svg width="38" height="38" viewBox="0 0 38 38" fill="none" xmlns="http://www.w3.org/2000/svg">
<path d="M35.9709 30.3447H34.6335C34.6335 30.2063 34.6796 30.1141 34.6796 29.9757V3.36653C34.6796 2.25973 33.7573 1.3374 32.6505 1.3374H5.34951C4.24272 1.3374 3.32039 2.25973 3.32039 3.36653V29.9296C3.32039 30.068 3.32039 30.1602 3.3665 30.2986H2.02913C0.92233 30.2986 0 31.2209 0 32.3277V34.6335C0 35.7403 0.92233 36.6626 2.02913 36.6626H35.9709C37.0777 36.6626 38 35.7403 38 34.6335V32.3277C38 31.2209 37.0777 30.3447 35.9709 30.3447ZM4.98058 3.36653C4.98058 3.18206 5.16505 2.9976 5.34951 2.9976H32.6044C32.7888 2.9976 32.9733 3.18206 32.9733 3.36653V29.9296C32.9733 30.1141 32.7888 30.2986 32.6044 30.2986H5.34951C5.16505 30.3447 4.98058 30.1602 4.98058 29.9296V3.36653ZM35.9709 35.0024H2.02913C1.84466 35.0024 1.66019 34.818 1.66019 34.6335V32.3277C1.66019 32.1432 1.84466 31.9588 2.02913 31.9588H5.34951H32.6044H35.9248C36.1092 31.9588 36.2937 32.1432 36.2937 32.3277V34.6335H36.3398C36.3398 34.818 36.1553 35.0024 35.9709 35.0024Z" fill="#72929F"/>
<path d="M17.5704 4.2428H6.96364C6.50248 4.2428 6.13354 4.61173 6.13354 5.0729V28.2695C6.13354 28.7307 6.50248 29.0996 6.96364 29.0996H17.5704C18.0316 29.0996 18.4005 28.7307 18.4005 28.2695V5.0729C18.4005 4.61173 18.0316 4.2428 17.5704 4.2428ZM16.7403 27.4394H7.79374V5.90299H16.7403V27.4394Z" fill="#72929F"/>
<path d="M15.034 14.4806C14.5728 14.4806 14.2039 14.8495 14.2039 15.3107V18.0316C14.2039 18.4927 14.5728 18.8617 15.034 18.8617C15.4951 18.8617 15.8641 18.4927 15.8641 18.0316V15.3107C15.8641 14.8495 15.4951 14.4806 15.034 14.4806Z" fill="#72929F"/>
<path d="M31.0367 4.2428H20.43C19.9688 4.2428 19.5999 4.61173 19.5999 5.0729V28.2695C19.5999 28.7307 19.9688 29.0996 20.43 29.0996H31.0367C31.4979 29.0996 31.8668 28.7307 31.8668 28.2695V5.0729C31.8668 4.61173 31.4979 4.2428 31.0367 4.2428ZM30.2066 27.4394H21.26V5.90299H30.2066V27.4394Z" fill="#72929F"/>
<path d="M22.9658 14.4806C22.5047 14.4806 22.1357 14.8495 22.1357 15.3107V18.0316C22.1819 18.4927 22.5508 18.8617 22.9658 18.8617C23.427 18.8617 23.7959 18.4927 23.7959 18.0316V15.3107C23.7959 14.8495 23.427 14.4806 22.9658 14.4806Z" fill="#72929F"/>
</svg>
