<svg width="34" height="40" viewBox="0 0 34 40" fill="none" xmlns="http://www.w3.org/2000/svg">
    <path d="M8.13328 3.13336H8.33328H24.9999H25.1999V3.33336V9.765C25.1999 11.5049 24.3315 13.128 22.8856 14.0908L8.13328 3.13336ZM8.13328 3.13336V3.33336V9.765C8.13328 11.5049 9.00174 13.1281 10.4487 14.0915L16.5557 18.1633L16.6666 18.2373L16.7776 18.1633L22.8854 14.0909L8.13328 3.13336ZM8.13328 36.8666V36.6666V30.235C8.13328 28.4951 9.00167 26.872 10.4476 25.9092L8.13328 36.8666ZM8.13328 36.8666H8.33328H25H25.2V36.6666V30.235C25.2 28.4951 24.3315 26.8718 22.8846 25.9085L16.7776 21.8367L16.6666 21.7627L16.5557 21.8367L10.4478 25.9092L8.13328 36.8666ZM28.1333 36.6666V36.8666H28.3333H31.6666C32.4766 36.8666 33.1333 37.5233 33.1333 38.3334C33.1333 39.1434 32.4767 39.8 31.6666 39.8H26.6666H6.66664H1.66664C0.856641 39.8 0.2 39.1433 0.2 38.3333C0.2 37.5233 0.856628 36.8666 1.66664 36.8666H5H5.2V36.6666V30.235C5.2 27.514 6.55897 24.9743 8.82123 23.4681L8.82134 23.468L13.7732 20.1664L14.0228 20L13.7732 19.8336L8.82228 16.5325L8.82216 16.5324C6.55896 15.0257 5.2 12.4859 5.2 9.76492V3.33328V3.13328H5H1.66664C0.856629 3.13328 0.2 2.47665 0.2 1.66664C0.2 0.856629 0.856629 0.2 1.66664 0.2H6.66664H26.6666H31.6666C32.4766 0.2 33.1333 0.856623 33.1333 1.66672C33.1333 2.47673 32.4767 3.13336 31.6666 3.13336H28.3333H28.1333V3.33336V9.765C28.1333 12.486 26.7743 15.0257 24.5121 16.5319L24.5119 16.532L19.5601 19.8336L19.3105 20L19.5601 20.1664L24.511 23.4674L24.5111 23.4675C26.7743 24.9743 28.1333 27.514 28.1333 30.235V36.6666Z" fill="#C3D4E0" stroke="#F0F4F5" stroke-width="0.4"/>
    <path d="M17.887 14.8043L17.887 14.8044C17.4378 15.4784 16.5272 15.6606 15.8533 15.2113L15.8533 15.2113L11.5928 12.3715C11.5927 12.3715 11.5926 12.3714 11.5925 12.3714C10.7222 11.789 10.2 10.8134 10.2 9.7659V8.33254C10.2 7.52252 10.8566 6.86589 11.6666 6.86589C12.4766 6.86589 13.1333 7.52252 13.1333 8.33254H13.3333L13.1333 8.33255V8.3326V8.33268V8.3328V8.33294V8.33312V8.33333V8.33357V8.33385V8.33415V8.33449V8.33486V8.33526V8.33569V8.33615V8.33665V8.33717V8.33773V8.33831V8.33893V8.33957V8.34025V8.34095V8.34169V8.34246V8.34325V8.34407V8.34493V8.34581V8.34672V8.34766V8.34863V8.34963V8.35066V8.35172V8.3528V8.35391V8.35505V8.35622V8.35742V8.35864V8.35989V8.36117V8.36248V8.36381V8.36517V8.36656V8.36797V8.36941V8.37088V8.37237V8.37389V8.37544V8.37701V8.37861V8.38023V8.38188V8.38356V8.38526V8.38698V8.38873V8.39051V8.39231V8.39413V8.39598V8.39786V8.39975V8.40168V8.40362V8.4056V8.40759V8.40961V8.41165V8.41372V8.4158V8.41792V8.42005V8.42221V8.42439V8.42659V8.42882V8.43107V8.43334V8.43563V8.43795V8.44028V8.44264V8.44502V8.44742V8.44985V8.45229V8.45476V8.45724V8.45975V8.46228V8.46483V8.4674V8.46999V8.4726V8.47523V8.47788V8.48055V8.48324V8.48595V8.48868V8.49143V8.49419V8.49698V8.49978V8.50261V8.50545V8.50831V8.51119V8.51409V8.51701V8.51994V8.5229V8.52587V8.52886V8.53186V8.53488V8.53792V8.54098V8.54406V8.54715V8.55026V8.55338V8.55652V8.55968V8.56286V8.56605V8.56925V8.57248V8.57571V8.57897V8.58224V8.58552V8.58882V8.59214V8.59547V8.59881V8.60217V8.60555V8.60893V8.61234V8.61575V8.61919V8.62263V8.62609V8.62956V8.63305V8.63655V8.64006V8.64359V8.64713V8.65068V8.65425V8.65783V8.66142V8.66502V8.66863V8.67226V8.6759V8.67955V8.68322V8.68689V8.69058V8.69428V8.69798V8.7017V8.70544V8.70918V8.71293V8.7167V8.72047V8.72425V8.72805V8.73185V8.73567V8.73949V8.74333V8.74717V8.75103V8.75489V8.75876V8.76264V8.76653V8.77043V8.77434V8.77826V8.78218V8.78611V8.79006V8.794V8.79796V8.80193V8.8059V8.80988V8.81387V8.81786V8.82187V8.82588V8.82989V8.83392V8.83795V8.84198V8.84602V8.85007V8.85413V8.85819V8.86226V8.86633V8.87041V8.87449V8.87858V8.88268V8.88678V8.89088V8.89499V8.89911V8.90322V8.90735V8.91148V8.91561V8.91974V8.92388V8.92803V8.93218V8.93633V8.94048V8.94464V8.9488V8.95297V8.95713V8.9613V8.96548V8.96965V8.97383V8.97801V8.98219V8.98638V8.99056V8.99475V8.99894V9.00313V9.00733V9.01152V9.01572V9.01991V9.02411V9.02831V9.03251V9.03671V9.0409V9.0451V9.0493V9.0535V9.0577V9.0619V9.0661V9.0703V9.0745V9.0787V9.08289V9.08709V9.09128V9.09547V9.09967V9.10386V9.10804V9.11223V9.11641V9.1206V9.12478V9.12896V9.13313V9.1373V9.14147V9.14564V9.14981V9.15397V9.15813V9.16228V9.16643V9.17058V9.17472V9.17886V9.183V9.18713V9.19126V9.19538V9.1995V9.20362V9.20773V9.21183V9.21593V9.22003V9.22412V9.2282V9.23228V9.23635V9.24042V9.24448V9.24854V9.25259V9.25663V9.26067V9.26469V9.26872V9.27273V9.27674V9.28075V9.28474V9.28873V9.29271V9.29668V9.30065V9.30461V9.30856V9.3125V9.31643V9.32036V9.32427V9.32818V9.33208V9.33597V9.33985V9.34372V9.34759V9.35144V9.35529V9.35912V9.36294V9.36676V9.37056V9.37436V9.37814V9.38192V9.38568V9.38944V9.39318V9.39691V9.40063V9.40434V9.40804V9.41172V9.4154V9.41906V9.42271V9.42635V9.42998V9.4336V9.4372V9.44079V9.44437V9.44794V9.45149V9.45503V9.45855V9.46207V9.46557V9.46905V9.47253V9.47599V9.47943V9.48286V9.48628V9.48969V9.49307V9.49645V9.49981V9.50315V9.50648V9.5098V9.5131V9.51638V9.51965V9.52291V9.52615V9.52937V9.53258V9.53577V9.53894V9.5421V9.54524V9.54837V9.55147V9.55457V9.55764V9.5607V9.56374V9.56676V9.56977V9.57276V9.57573V9.57868V9.58162V9.58453V9.58743V9.59031V9.59317V9.59602V9.59884V9.60165V9.60444V9.6072V9.60995V9.61268V9.61539V9.61808V9.62075V9.6234V9.62603V9.62864V9.63123V9.6338V9.63635V9.63888V9.64139V9.64387V9.64634V9.64879V9.65121V9.65361V9.65599V9.65835V9.66069V9.663V9.6653V9.66757V9.66982V9.67204V9.67425V9.67643V9.67859V9.68072V9.68283V9.68492V9.68699V9.68903V9.69105V9.69304V9.69501V9.69696V9.69889V9.70078V9.70266V9.70451V9.70633V9.70813V9.70991V9.71166V9.71339V9.71509V9.71676V9.71841V9.72004V9.72163V9.72321V9.72475V9.72627V9.72777V9.72923V9.73068V9.73209V9.73348V9.73484V9.73617V9.73748V9.73876V9.74001V9.74123V9.74243V9.7436V9.74474V9.74585V9.74694V9.74799V9.74902V9.75002V9.75099V9.75193V9.75284V9.75373V9.75458V9.7554V9.7562V9.75697V9.7577V9.75841V9.75908V9.75973V9.76035V9.76093V9.76149V9.76201V9.7625V9.76297V9.7634V9.7638V9.76417V9.76451V9.76481V9.76509V9.76533V9.76554V9.76572V9.76587V9.76598V9.76606V9.76611V9.76613V9.87318L13.2223 9.93255L17.4801 12.7705L17.591 12.6041L17.4801 12.7705C18.154 13.2197 18.3363 14.1303 17.887 14.8043Z" fill="#C3D4E0" stroke="#F0F4F5" stroke-width="0.4"/>
    <path d="M20.2002 31.6675H20.0002L20.2002 31.6674V31.6674V31.6673V31.6672V31.6671V31.6669V31.6667V31.6664V31.6662V31.6658V31.6655V31.6651V31.6647V31.6643V31.6638V31.6634V31.6628V31.6623V31.6617V31.6611V31.6604V31.6598V31.659V31.6583V31.6575V31.6567V31.6559V31.6551V31.6542V31.6533V31.6523V31.6514V31.6504V31.6493V31.6483V31.6472V31.6461V31.6449V31.6438V31.6426V31.6414V31.6401V31.6388V31.6375V31.6362V31.6348V31.6334V31.632V31.6306V31.6291V31.6276V31.6261V31.6246V31.623V31.6214V31.6198V31.6181V31.6164V31.6147V31.613V31.6113V31.6095V31.6077V31.6059V31.604V31.6021V31.6002V31.5983V31.5964V31.5944V31.5924V31.5904V31.5883V31.5863V31.5842V31.5821V31.5799V31.5778V31.5756V31.5734V31.5712V31.5689V31.5667V31.5644V31.5621V31.5597V31.5574V31.555V31.5526V31.5502V31.5477V31.5452V31.5428V31.5402V31.5377V31.5352V31.5326V31.53V31.5274V31.5248V31.5221V31.5195V31.5168V31.5141V31.5113V31.5086V31.5058V31.503V31.5002V31.4974V31.4945V31.4917V31.4888V31.4859V31.483V31.4801V31.4771V31.4741V31.4711V31.4681V31.4651V31.4621V31.459V31.4559V31.4529V31.4497V31.4466V31.4435V31.4403V31.4371V31.434V31.4307V31.4275V31.4243V31.421V31.4178V31.4145V31.4112V31.4079V31.4045V31.4012V31.3978V31.3945V31.3911V31.3877V31.3842V31.3808V31.3774V31.3739V31.3704V31.367V31.3635V31.3599V31.3564V31.3529V31.3493V31.3458V31.3422V31.3386V31.335V31.3314V31.3277V31.3241V31.3204V31.3168V31.3131V31.3094V31.3057V31.302V31.2983V31.2946V31.2908V31.2871V31.2833V31.2795V31.2757V31.272V31.2681V31.2643V31.2605V31.2567V31.2528V31.249V31.2451V31.2412V31.2374V31.2335V31.2296V31.2257V31.2217V31.2178V31.2139V31.2099V31.206V31.202V31.1981V31.1941V31.1901V31.1861V31.1821V31.1781V31.1741V31.1701V31.1661V31.1621V31.158V31.154V31.1499V31.1459V31.1418V31.1377V31.1337V31.1296V31.1255V31.1214V31.1173V31.1132V31.1091V31.105V31.1009V31.0968V31.0927V31.0885V31.0844V31.0803V31.0761V31.072V31.0678V31.0637V31.0595V31.0554V31.0512V31.047V31.0429V31.0387V31.0345V31.0303V31.0262V31.022V31.0178V31.0136V31.0094V31.0052V31.0011V30.9969V30.9927V30.9885V30.9843V30.9801V30.9759V30.9717V30.9675V30.9633V30.9591V30.9549V30.9507V30.9465V30.9423V30.9381V30.9339V30.9297V30.9255V30.9213V30.9171V30.9129V30.9087V30.9045V30.9003V30.8961V30.892V30.8878V30.8836V30.8794V30.8752V30.871V30.8669V30.8627V30.8585V30.8544V30.8502V30.846V30.8419V30.8377V30.8336V30.8294V30.8253V30.8211V30.817V30.8129V30.8087V30.8046V30.8005V30.7964V30.7923V30.7882V30.7841V30.78V30.7759V30.7718V30.7677V30.7636V30.7596V30.7555V30.7515V30.7474V30.7434V30.7393V30.7353V30.7313V30.7273V30.7233V30.7193V30.7153V30.7113V30.7073V30.7033V30.6994V30.6954V30.6914V30.6875V30.6836V30.6796V30.6757V30.6718V30.6679V30.664V30.6601V30.6563V30.6524V30.6486V30.6447V30.6409V30.6371V30.6332V30.6294V30.6256V30.6219V30.6181V30.6143V30.6106V30.6068V30.6031V30.5994V30.5957V30.592V30.5883V30.5846V30.5809V30.5773V30.5736V30.57V30.5664V30.5628V30.5592V30.5556V30.5521V30.5485V30.545V30.5414V30.5379V30.5344V30.5309V30.5275V30.524V30.5206V30.5171V30.5137V30.5103V30.5069V30.5036V30.5002V30.4968V30.4935V30.4902V30.4869V30.4836V30.4803V30.4771V30.4739V30.4706V30.4674V30.4642V30.4611V30.4579V30.4548V30.4516V30.4485V30.4454V30.4424V30.4393V30.4363V30.4332V30.4302V30.4272V30.4243V30.4213V30.4184V30.4155V30.4126V30.4097V30.4068V30.404V30.4012V30.3984V30.3956V30.3928V30.39V30.3873V30.3846V30.3819V30.3792V30.3766V30.374V30.3714V30.3688V30.3662V30.3636V30.3611V30.3586V30.3561V30.3537V30.3512V30.3488V30.3464V30.344V30.3416V30.3393V30.337V30.3347V30.3324V30.3302V30.328V30.3258V30.3236V30.3214V30.3193V30.3172V30.3151V30.313V30.311V30.309V30.307V30.305V30.303V30.3011V30.2992V30.2973V30.2955V30.2937V30.2919V30.2901V30.2883V30.2866V30.2849V30.2832V30.2816V30.28V30.2784V30.2768V30.2752V30.2737V30.2722V30.2708V30.2693V30.2679V30.2665V30.2652V30.2638V30.2625V30.2612V30.26V30.2588V30.2576V30.2564V30.2553V30.2541V30.2531V30.252V30.251V30.25V30.249V30.2481V30.2472V30.2463V30.2454V30.2446V30.2438V30.243V30.2423V30.2416V30.2409V30.2403V30.2397V30.2391V30.2385V30.238V30.2375V30.237V30.2366V30.2362V30.2358V30.2355V30.2352V30.2349V30.2347V30.2345V30.2343V30.2341V30.234V30.2339V30.2339V30.2339V30.1268L20.1111 30.0674L15.8534 27.2295L15.8534 27.2295C15.1794 26.7803 14.9972 25.8697 15.4464 25.1957L15.4464 25.1956C15.8956 24.5217 16.8062 24.3394 17.4803 24.7887L17.4803 24.7887L21.7407 27.6284C21.7408 27.6285 21.7408 27.6285 21.7409 27.6285C22.6112 28.211 23.1335 29.1866 23.1335 30.2341V31.6675C23.1335 32.4775 22.4768 33.1341 21.6668 33.1341C20.8568 33.1341 20.2002 32.4775 20.2002 31.6675Z" fill="#C3D4E0" stroke="#F0F4F5" stroke-width="0.4"/>
</svg>