<?xml version="1.0" standalone="no"?>
<!DOCTYPE svg PUBLIC "-//W3C//DTD SVG 20010904//EN"
 "http://www.w3.org/TR/2001/REC-SVG-20010904/DTD/svg10.dtd">
<svg version="1.0" xmlns="http://www.w3.org/2000/svg"
 width="90.000000pt" height="90.000000pt" viewBox="0 0 90.000000 90.000000"
 preserveAspectRatio="xMidYMid meet">
<metadata>
Created by potrace 1.11, written by Peter Selinger 2001-2013
</metadata>
<g transform="translate(0.000000,90.000000) scale(0.100000,-0.100000)"
fill="#000000" stroke="none">
<path d="M0 607 l0 -292 143 0 c78 0 149 -1 157 -3 13 -3 16 -27 15 -158 l-1
-154 293 0 293 0 -2 292 -3 293 -145 1 c-80 0 -150 2 -155 2 -7 1 -11 57 -10
155 l0 152 -292 3 -293 2 0 -293z m450 158 l0 -45 -135 0 -135 0 0 -35 0 -35
149 2 c82 0 153 -2 158 -5 5 -3 9 -37 8 -76 -1 -43 3 -72 9 -72 6 -1 72 -3
146 -4 74 -1 141 -3 148 -4 8 -1 12 -21 12 -66 l0 -65 -45 0 c-40 0 -45 2 -45
23 0 22 -3 22 -102 22 -57 0 -108 -3 -113 -7 -6 -4 -11 -49 -10 -110 l0 -103
158 -3 157 -3 0 -44 0 -45 -202 2 -203 3 0 155 0 155 -145 1 c-80 1 -151 2
-157 3 -10 1 -13 48 -13 201 l0 200 180 0 180 0 0 -45z"/>
<path d="M198 562 c-18 -4 -28 -30 -19 -52 5 -13 26 -15 109 -14 56 1 106 2
110 3 10 1 10 47 0 56 -6 7 -173 12 -200 7z"/>
</g>
</svg>
