<svg width="48" height="48" viewBox="0 0 48 48" fill="none" xmlns="http://www.w3.org/2000/svg">
    <g>
        <path d="M46.3573 12.9897L34.1287 0.282937C33.9546 0.102187 33.7144 0 33.4635 0H15.2376C13.1979 0 11.5384 1.65881 11.5384 3.69769V16.6154H4.15212C2.62605 16.6154 1.38452 17.8566 1.38452 19.3822V33.2332C1.38452 34.7588 2.62605 36 4.15212 36H11.5384V44.3088C11.5384 46.3441 13.1979 48 15.2376 48H42.9161C44.9559 48 46.6153 46.345 46.6153 44.3108V13.6298C46.6153 13.3912 46.5228 13.1618 46.3573 12.9897ZM33.6923 2.49197L43.7309 12.9231H33.6923V2.49197ZM4.15212 34.1539C3.64399 34.1539 3.23074 33.7409 3.23074 33.2332V19.3822C3.23074 18.8746 3.64408 18.4615 4.15212 18.4615H29.0786C29.5867 18.4615 29.9999 18.8746 29.9999 19.3822V33.2332C29.9999 33.7409 29.5866 34.1539 29.0786 34.1539H4.15212ZM44.7691 44.3108C44.7691 45.3271 43.9378 46.1539 42.9161 46.1539H15.2376C14.2158 46.1539 13.3845 45.3262 13.3845 44.3089V36H29.0786C30.6046 36 31.8461 34.7588 31.8461 33.2332V19.3822C31.8461 17.8566 30.6046 16.6154 29.0786 16.6154H13.3845V3.69769C13.3845 2.67666 14.2158 1.84612 15.2376 1.84612H31.8461V13.8461C31.8461 14.3559 32.2594 14.7692 32.7691 14.7692H44.7691V44.3108Z"
              fill="#72929F"></path>
        <path d="M8.81602 23C9.78268 23 10.5893 23.3367 11.236 24.01C11.8893 24.6767 12.216 25.5067 12.216 26.5C12.216 27.4933 11.8893 28.3267 11.236 29C10.5893 29.6667 9.78268 30 8.81602 30H6.01602V23H8.81602ZM8.81602 28.46C9.36935 28.46 9.81602 28.2833 10.156 27.93C10.5027 27.57 10.676 27.0933 10.676 26.5C10.676 25.9067 10.5027 25.4333 10.156 25.08C9.81602 24.72 9.36935 24.54 8.81602 24.54H7.61602V28.46H8.81602ZM19.0356 29.09C18.329 29.79 17.469 30.14 16.4556 30.14C15.4423 30.14 14.5823 29.79 13.8756 29.09C13.169 28.39 12.8156 27.5267 12.8156 26.5C12.8156 25.4733 13.169 24.61 13.8756 23.91C14.5823 23.21 15.4423 22.86 16.4556 22.86C17.469 22.86 18.329 23.21 19.0356 23.91C19.7423 24.61 20.0956 25.4733 20.0956 26.5C20.0956 27.5267 19.7423 28.39 19.0356 29.09ZM14.9956 28C15.389 28.3867 15.8756 28.58 16.4556 28.58C17.0356 28.58 17.519 28.3867 17.9056 28C18.299 27.6133 18.4956 27.1133 18.4956 26.5C18.4956 25.8867 18.299 25.3867 17.9056 25C17.519 24.6133 17.0356 24.42 16.4556 24.42C15.8756 24.42 15.389 24.6133 14.9956 25C14.609 25.3867 14.4156 25.8867 14.4156 26.5C14.4156 27.1133 14.609 27.6133 14.9956 28ZM24.3365 30.14C23.2898 30.14 22.4198 29.7933 21.7265 29.1C21.0398 28.4 20.6965 27.5333 20.6965 26.5C20.6965 25.4667 21.0398 24.6033 21.7265 23.91C22.4198 23.21 23.2898 22.86 24.3365 22.86C24.9632 22.86 25.5432 23.0067 26.0765 23.3C26.6098 23.5867 27.0298 23.98 27.3365 24.48L25.9565 25.28C25.8032 25.0067 25.5832 24.7967 25.2965 24.65C25.0098 24.4967 24.6898 24.42 24.3365 24.42C23.7165 24.42 23.2198 24.61 22.8465 24.99C22.4798 25.37 22.2965 25.8733 22.2965 26.5C22.2965 27.1267 22.4798 27.63 22.8465 28.01C23.2198 28.39 23.7165 28.58 24.3365 28.58C24.6898 28.58 25.0098 28.5033 25.2965 28.35C25.5898 28.1967 25.8098 27.9867 25.9565 27.72L27.3365 28.52C27.0365 29.02 26.6198 29.4167 26.0865 29.71C25.5532 29.9967 24.9698 30.14 24.3365 30.14Z"
              fill="#72929F"></path>
    </g>
    <defs>
        <linearGradient id="paint0_linear" x1="24" y1="0" x2="24" y2="48" gradientUnits="userSpaceOnUse">

            <stop offset="1" stop-color="white" stop-opacity="0"></stop>
        </linearGradient>
    </defs>
</svg>
