<svg width="48" height="48" viewBox="0 0 48 48" fill="none" xmlns="http://www.w3.org/2000/svg">
    <g>
        <path d="M46.3573 12.9897L34.1287 0.282937C33.9546 0.102187 33.7144 0 33.4635 0H15.2376C13.1979 0 11.5384 1.65881 11.5384 3.69769V16.6154H4.15212C2.62605 16.6154 1.38452 17.8566 1.38452 19.3822V33.2332C1.38452 34.7588 2.62605 36 4.15212 36H11.5384V44.3088C11.5384 46.3441 13.1979 48 15.2376 48H42.9161C44.9559 48 46.6153 46.345 46.6153 44.3108V13.6298C46.6153 13.3912 46.5228 13.1618 46.3573 12.9897ZM33.6923 2.49197L43.7309 12.9231H33.6923V2.49197ZM4.15212 34.1539C3.64399 34.1539 3.23074 33.7409 3.23074 33.2332V19.3822C3.23074 18.8746 3.64408 18.4615 4.15212 18.4615H29.0786C29.5867 18.4615 29.9999 18.8746 29.9999 19.3822V33.2332C29.9999 33.7409 29.5866 34.1539 29.0786 34.1539H4.15212ZM44.7691 44.3108C44.7691 45.3271 43.9378 46.1539 42.9161 46.1539H15.2376C14.2158 46.1539 13.3845 45.3262 13.3845 44.3089V36H29.0786C30.6046 36 31.8461 34.7588 31.8461 33.2332V19.3822C31.8461 17.8566 30.6046 16.6154 29.0786 16.6154H13.3845V3.69769C13.3845 2.67666 14.2158 1.84612 15.2376 1.84612H31.8461V13.8461C31.8461 14.3559 32.2594 14.7692 32.7691 14.7692H44.7691V44.3108Z"
              fill="#72929F"></path>
        <path d="M10.6533 23C11.34 23 11.92 23.2333 12.3933 23.7C12.8667 24.1667 13.1033 24.7333 13.1033 25.4C13.1033 26.0667 12.8667 26.6333 12.3933 27.1C11.92 27.5667 11.34 27.8 10.6533 27.8H9.60332V30H8.00332V23H10.6533ZM10.6533 26.3C10.9 26.3 11.1033 26.2133 11.2633 26.04C11.4233 25.8667 11.5033 25.6533 11.5033 25.4C11.5033 25.1467 11.4233 24.9333 11.2633 24.76C11.1033 24.5867 10.9 24.5 10.6533 24.5H9.60332V26.3H10.6533ZM16.7018 23C17.6684 23 18.4751 23.3367 19.1218 24.01C19.7751 24.6767 20.1018 25.5067 20.1018 26.5C20.1018 27.4933 19.7751 28.3267 19.1218 29C18.4751 29.6667 17.6684 30 16.7018 30H13.9018V23H16.7018ZM16.7018 28.46C17.2551 28.46 17.7018 28.2833 18.0418 27.93C18.3884 27.57 18.5618 27.0933 18.5618 26.5C18.5618 25.9067 18.3884 25.4333 18.0418 25.08C17.7018 24.72 17.2551 24.54 16.7018 24.54H15.5018V28.46H16.7018ZM25.2514 24.54H22.6014V25.89H25.2014V27.43H22.6014V30H21.0014V23H25.2514V24.54Z"
              fill="#72929F"></path>
    </g>
    <defs>
        <linearGradient id="paint0_linear" x1="24" y1="0" x2="24" y2="48" gradientUnits="userSpaceOnUse">
            <stop offset="1" stop-color="white" stop-opacity="0"></stop>
        </linearGradient>
    </defs>
</svg>
